CM148.jpg 3.516667
AF1048.jpg 3.15
AM878.jpg 2.566667
AM1633.jpg 3.133333
AM1176.jpg 1.95
AF1962.jpg 3.616667
CF500.jpg 2.75
AF1646.jpg 4.383333
AF1845.jpg 1.966667
AF414.jpg 2.35
AM678.jpg 3.1
AM1556.jpg 2.75
AF753.jpg 4.016667
CM301.jpg 2.133333
CM478.jpg 3.083333
AM331.jpg 2.383333
AF796.jpg 2.566667
AF151.jpg 2.266667
AM1624.jpg 4.666667
AF1440.jpg 3.633333
AM868.jpg 1.816667
AF154.jpg 3
CM356.jpg 2.433333
AM985.jpg 3.233333
AM542.jpg 1.933333
AF1429.jpg 3.716667
AF1405.jpg 4.116667
CF721.jpg 3.933333
AF1071.jpg 3.133333
AF1313.jpg 2.516667
CF213.jpg 2.833333
AF1864.jpg 3.933333
AF1635.jpg 3.783333
AM1412.jpg 2.816667
AF910.jpg 3.216667
AM594.jpg 2.216667
CF69.jpg 3
AF798.jpg 4.166667
AF1069.jpg 3.183333
AF165.jpg 2.6
AM1054.jpg 1.833333
AF987.jpg 3.533333
CF287.jpg 2.833333
AM1525.jpg 2.15
CM83.jpg 2.283333
AF666.jpg 2.933333
AF1629.jpg 4.033333
AF701.jpg 3.066667
AM1083.jpg 2.7
CM208.jpg 3.266667
AM1988.jpg 4.3
AF37.jpg 2.166667
AF1526.jpg 4.2
CF195.jpg 2.733333
AF698.jpg 2.333333
AF1435.jpg 2.7
AM1277.jpg 2.216667
AF1562.jpg 3.4
AM1585.jpg 3.983333
CF28.jpg 4.3
AM1742.jpg 4.283333
AM685.jpg 2.883333
AF1334.jpg 3.766667
CM627.jpg 2.583333
AM47.jpg 3.016667
AM644.jpg 2.8
AM320.jpg 4.316667
AF1620.jpg 3.883333
AM817.jpg 2
AM1381.jpg 2.666667
AF714.jpg 2.733333
AF736.jpg 2.15
CM702.jpg 3.383333
AM934.jpg 2.016667
AM1013.jpg 2.766667
CF616.jpg 3.933333
AF1614.jpg 2.966667
AM567.jpg 2.466667
AM1397.jpg 2.85
CM632.jpg 2.333333
CF664.jpg 3.416667
CF250.jpg 2.6
CF637.jpg 4.4
CF268.jpg 3.1
AF517.jpg 2.283333
AM936.jpg 2.283333
AF1711.jpg 3.866667
AM1704.jpg 4.4
AF466.jpg 2.95
AF1538.jpg 4.033333
AM1147.jpg 2.533333
CM404.jpg 2.533333
AM736.jpg 2.633333
AM164.jpg 2
AF77.jpg 2.666667
AF1667.jpg 3.8
AM1513.jpg 2.316667
AF1611.jpg 3.333333
AM143.jpg 3.15
AF726.jpg 3
CF487.jpg 2.133333
CM219.jpg 3.066667
AM55.jpg 3.9
CM9.jpg 3.95
AM1347.jpg 2.483333
AM1105.jpg 2.333333
AF424.jpg 2.6
AM131.jpg 4.283333
AM933.jpg 2.75
AF849.jpg 2.666667
AM336.jpg 2.65
AM394.jpg 1.816667
AM1597.jpg 4.3
CF327.jpg 2.716667
AF1730.jpg 4.066667
AM1368.jpg 2.716667
AF518.jpg 2.15
CF165.jpg 1.916667
AM305.jpg 4.216667
AF1223.jpg 2.133333
CF400.jpg 3.1
AM589.jpg 2.25
CM532.jpg 2.516667
CM88.jpg 2.783333
AF1333.jpg 4.383333
AF843.jpg 2.416667
AF162.jpg 2.116667
CF253.jpg 3.2
AM440.jpg 1.766667
AF1594.jpg 3.816667
CF206.jpg 2.133333
AF1271.jpg 3.333333
AM1400.jpg 2.9
CF193.jpg 3.7
AM1329.jpg 2.7
AM366.jpg 2.166667
CM210.jpg 2.533333
CM65.jpg 3.633333
CM155.jpg 2.55
CF577.jpg 4.366667
CM261.jpg 2.666667
AF551.jpg 3.733333
AM475.jpg 2.666667
AF1741.jpg 3.883333
AF1005.jpg 2.216667
AF729.jpg 2.666667
AF1975.jpg 2.116667
AM444.jpg 2.55
AM1652.jpg 4.133333
AF989.jpg 2.483333
AM218.jpg 4.016667
AM1808.jpg 3.95
AF845.jpg 3.233333
AM261.jpg 2.7
AF330.jpg 3.25
AM1781.jpg 2.95
AM1934.jpg 4.466667
AF1177.jpg 3.683333
CF636.jpg 4.316667
AF462.jpg 2.65
AF890.jpg 3.3
AM1101.jpg 2.383333
AM41.jpg 4.266667
AM534.jpg 2.85
AM766.jpg 2.6
CF543.jpg 2.7
CM401.jpg 2.783333
CM557.jpg 2.616667
CF735.jpg 4.216667
AM1936.jpg 4.5
AM750.jpg 2.266667
CF114.jpg 2.216667
AM1464.jpg 4.416667
AM1885.jpg 4.216667
CM238.jpg 3.116667
AF334.jpg 2.25
CF553.jpg 3.916667
AM638.jpg 2.166667
CF439.jpg 2.683333
AF1220.jpg 2.833333
CM35.jpg 2.616667
CF599.jpg 3.866667
AM689.jpg 2.9
AF611.jpg 2.766667
AF368.jpg 2.6
CM408.jpg 2.916667
AF600.jpg 3.35
AM1449.jpg 2.4
AM1249.jpg 2.416667
AM721.jpg 2.833333
AF1825.jpg 4.016667
CF510.jpg 3.633333
AM1131.jpg 2.35
AF279.jpg 3.083333
CM136.jpg 2.583333
AM1404.jpg 2.9
CF644.jpg 3.9
CF89.jpg 4.183333
AF956.jpg 3.35
AM722.jpg 3
AF1229.jpg 2.883333
AF597.jpg 2.916667
AF650.jpg 2.45
AM51.jpg 3.75
AM1182.jpg 2.183333
AM621.jpg 2.95
AF1641.jpg 1.166667
AM373.jpg 2.416667
AF1467.jpg 3.716667
AF453.jpg 4.1
AF896.jpg 3.033333
CM112.jpg 2.95
AM381.jpg 3.066667
CF214.jpg 2.4
AM144.jpg 3.216667
CF525.jpg 2.133333
AF1021.jpg 2.933333
AM890.jpg 2.1
AF1120.jpg 2.9
AM739.jpg 1.983333
CF207.jpg 2.333333
AF875.jpg 2.533333
CM91.jpg 2.15
CM350.jpg 2.333333
AM1644.jpg 4.083333
AM140.jpg 3.116667
AM1972.jpg 4.15
AF550.jpg 2.533333
CF513.jpg 2.266667
AF1989.jpg 3.5
AM421.jpg 3.8
AM198.jpg 3.133333
CM463.jpg 2.75
CM372.jpg 2.616667
AF1909.jpg 3.383333
AF888.jpg 2.783333
CF587.jpg 4.116667
CF669.jpg 4.15
AM1730.jpg 3.433333
AM731.jpg 2.833333
CF508.jpg 2.666667
AM374.jpg 2.55
AM1952.jpg 4.116667
CF45.jpg 2.6
CM422.jpg 2.383333
AF1382.jpg 4.05
CF388.jpg 3.4
AM1119.jpg 2.633333
AM1729.jpg 4
CM578.jpg 2.95
CF226.jpg 2.633333
AF1857.jpg 4.233333
AM904.jpg 2.55
AF276.jpg 2.133333
AF28.jpg 2.266667
CF489.jpg 2.666667
AF992.jpg 2.666667
AM448.jpg 2.05
AF1221.jpg 4.2
CM510.jpg 2.716667
AM602.jpg 2.733333
AF1477.jpg 4.1
AF1658.jpg 3.133333
AM588.jpg 2.433333
AM1198.jpg 2.583333
AF825.jpg 2.916667
AF1709.jpg 3.266667
CM194.jpg 2.116667
AF614.jpg 3.033333
AF1978.jpg 3.916667
AM1069.jpg 2.233333
CM730.jpg 3.55
AM1657.jpg 4.1
CF258.jpg 3.15
AF1132.jpg 3.233333
AF229.jpg 2.933333
AM562.jpg 2.983333
AM212.jpg 2.566667
AF1392.jpg 4.033333
CF673.jpg 4.183333
AF370.jpg 2.516667
CF515.jpg 2.183333
AF1447.jpg 4.316667
CM299.jpg 2.8
AF633.jpg 3.6
AM1714.jpg 3.166667
CF447.jpg 3
AM809.jpg 2.316667
AF412.jpg 3.066667
CM296.jpg 2.016667
AF1786.jpg 4.066667
AM1365.jpg 2.55
AM179.jpg 2.433333
CM411.jpg 2.866667
AM383.jpg 2.883333
AF1379.jpg 2.733333
AM1926.jpg 3.616667
AF1557.jpg 3.533333
CF330.jpg 2.483333
AF344.jpg 2.533333
CM306.jpg 4.266667
AF1942.jpg 2.466667
AM1944.jpg 4.266667
AF1357.jpg 4.283333
AM1605.jpg 4.55
CF536.jpg 3.733333
AM941.jpg 2.4
AF91.jpg 2.783333
AF1850.jpg 3.8
CF128.jpg 2.733333
CF578.jpg 3.966667
AM1978.jpg 3.3
AM1073.jpg 2.2
AM1581.jpg 4.416667
CF411.jpg 3.95
AM925.jpg 2.633333
AM616.jpg 3.016667
AM1254.jpg 2.466667
AM64.jpg 4.266667
AM1550.jpg 2.866667
AM1578.jpg 3.466667
AF397.jpg 2.666667
AF170.jpg 2.383333
AM193.jpg 4.383333
CF558.jpg 3.833333
CF623.jpg 4.266667
CF219.jpg 2.15
CF420.jpg 3.7
AF1661.jpg 3.683333
CM370.jpg 2.45
AM1181.jpg 2.483333
AM1437.jpg 3.2
AF341.jpg 2.483333
CF726.jpg 3.65
AM756.jpg 2.833333
AM939.jpg 2.683333
AF146.jpg 2.916667
AF1018.jpg 3.316667
AM738.jpg 2.833333
AM1794.jpg 2.6
AF951.jpg 2.983333
AM716.jpg 2.716667
AM1434.jpg 2.383333
CM86.jpg 2.916667
AM1884.jpg 3.783333
AM886.jpg 2.983333
AM228.jpg 2.5
AF459.jpg 2.083333
AF970.jpg 2.533333
AF1407.jpg 3.25
AF1894.jpg 4.416667
AF1551.jpg 3.616667
AF993.jpg 2.65
AF1865.jpg 3.216667
AM1302.jpg 2.416667
AM1278.jpg 2.133333
CF538.jpg 2.583333
CF403.jpg 2.233333
AF1873.jpg 1.633333
AF580.jpg 2.716667
AM734.jpg 2.3
AF1363.jpg 2.933333
AM773.jpg 2.45
AM981.jpg 2.566667
AF837.jpg 2.316667
AF1900.jpg 3.033333
CF51.jpg 2.483333
AF742.jpg 2.616667
AM357.jpg 4.166667
AF1320.jpg 4.166667
AM458.jpg 2.5
AM1442.jpg 2.466667
AF196.jpg 2.95
CF641.jpg 4.45
AF902.jpg 3.483333
AF417.jpg 2.933333
AM1061.jpg 2.65
AM1425.jpg 2.316667
CF706.jpg 4.3
AF50.jpg 2.583333
AF1996.jpg 1.6
AF977.jpg 3.583333
AF801.jpg 2.633333
CF431.jpg 2.833333
AF869.jpg 3.916667
AF444.jpg 3.166667
CF321.jpg 1.933333
AM160.jpg 4.183333
AF637.jpg 2.7
AM1225.jpg 2.383333
AF1274.jpg 3.116667
CF688.jpg 3.6
AF320.jpg 2.333333
AM148.jpg 4.1
AF887.jpg 2.016667
AM956.jpg 2.383333
AF1482.jpg 3.316667
AM1188.jpg 2.466667
AF787.jpg 2.366667
CF118.jpg 1.883333
AM1913.jpg 3.2
AM1756.jpg 3.583333
AF1361.jpg 3.983333
AM21.jpg 4.05
AF762.jpg 4.033333
AM259.jpg 2.283333
AM808.jpg 2.366667
AM120.jpg 4.433333
CM302.jpg 2.55
AM1595.jpg 3.933333
AM1473.jpg 1.65
AM466.jpg 2.733333
AF1820.jpg 1.416667
AF1444.jpg 4.116667
CF60.jpg 2.783333
AM260.jpg 2.75
CF180.jpg 3.316667
CF211.jpg 2.416667
AM1721.jpg 3.766667
AM50.jpg 3.45
AF979.jpg 2.383333
AM1134.jpg 2.8
CM48.jpg 2.15
AM501.jpg 2.4
AF1441.jpg 2.95
AF722.jpg 4.2
CF21.jpg 4.25
AM960.jpg 2.716667
CF86.jpg 2.666667
AF139.jpg 2.133333
AM1719.jpg 3.55
AF352.jpg 2.166667
AM914.jpg 2.483333
CF334.jpg 2.166667
AF1110.jpg 4.233333
CM400.jpg 2.433333
AM181.jpg 2.516667
AF692.jpg 2.366667
CF597.jpg 4.466667
AF1818.jpg 3.25
CF262.jpg 2.816667
AF133.jpg 2.833333
AF1842.jpg 3.916667
AM732.jpg 2.183333
CM470.jpg 2.633333
AM1770.jpg 3.366667
AM821.jpg 1.916667
AF80.jpg 2.866667
AF1326.jpg 3.566667
CM591.jpg 2.966667
AF1590.jpg 1.066667
AF456.jpg 2.65
AF616.jpg 2.016667
AM238.jpg 2.2
AF828.jpg 2.283333
AF1296.jpg 2.933333
AM481.jpg 2.55
AM1042.jpg 2.666667
CF643.jpg 2.966667
AF876.jpg 2.75
AF1771.jpg 1.666667
AF1249.jpg 4.316667
AF1451.jpg 4.066667
AM1818.jpg 1.75
AF1589.jpg 3.716667
AM531.jpg 2.7
AM1890.jpg 3.166667
AM1630.jpg 4.083333
CM669.jpg 4.416667
AF1050.jpg 3.183333
AF1014.jpg 4.316667
CF592.jpg 3.666667
AM1792.jpg 3.333333
CM523.jpg 2.816667
AM1453.jpg 2.083333
CM36.jpg 2.483333
AF1485.jpg 2.95
AF476.jpg 3.966667
AF1196.jpg 3.666667
AM563.jpg 2.883333
CM307.jpg 2.433333
AF1522.jpg 2
AF1694.jpg 3.65
CM398.jpg 2.166667
CF196.jpg 2.616667
CF527.jpg 2.75
AM195.jpg 1.766667
AF1383.jpg 2.033333
AM614.jpg 3.133333
CF491.jpg 2.116667
AF1967.jpg 1.883333
AF531.jpg 3
AF578.jpg 2.133333
AM1774.jpg 3.75
AM932.jpg 2.35
CF326.jpg 3.116667
AF1768.jpg 1.666667
AM1468.jpg 2.416667
AF298.jpg 2.383333
CM259.jpg 2.683333
AM844.jpg 2.533333
AF315.jpg 3.2
AF880.jpg 3.783333
AF1079.jpg 2.966667
AM210.jpg 3.9
AM1201.jpg 2.15
AM690.jpg 2.233333
AF836.jpg 4
AM991.jpg 2.1
AF172.jpg 2.383333
AF1073.jpg 2.666667
AM522.jpg 2.316667
AF1462.jpg 3.933333
AF964.jpg 3.783333
AF1332.jpg 2.316667
AM1970.jpg 3.716667
AF269.jpg 3.666667
AF810.jpg 2.9
AM1514.jpg 2.866667
CF490.jpg 2.8
AF838.jpg 4.216667
AF1102.jpg 3.833333
AF871.jpg 2.8
AF55.jpg 2.25
CF292.jpg 2.516667
AM1737.jpg 3.9
AF6.jpg 1.566667
AM1052.jpg 2.5
AM666.jpg 2.816667
AM1357.jpg 2.566667
CF654.jpg 4.116667
AM1296.jpg 2.666667
AF540.jpg 2.5
AM62.jpg 3.533333
AM1699.jpg 4.533333
CM95.jpg 2.133333
CM138.jpg 2
AM747.jpg 2.55
AM1995.jpg 4.133333
AF1448.jpg 3.9
AF567.jpg 3.5
AM411.jpg 2.816667
AM1262.jpg 2.733333
AM697.jpg 2.966667
CF104.jpg 2.55
CM102.jpg 2.866667
AF103.jpg 2.6
AM1928.jpg 3.416667
AM692.jpg 2.433333
AM170.jpg 2.483333
AM1902.jpg 3.466667
AM124.jpg 4.45
AF1213.jpg 3.433333
AF1545.jpg 4.216667
AF220.jpg 2.65
CM435.jpg 2.85
AM1580.jpg 4.05
AM1622.jpg 3.333333
AF354.jpg 2.816667
AF573.jpg 2.683333
CM366.jpg 3.183333
CM353.jpg 3.15
AM104.jpg 3.75
AM1989.jpg 4.416667
CM286.jpg 2.883333
CF30.jpg 3.366667
AF1022.jpg 3.766667
CM494.jpg 2.516667
CM145.jpg 2.183333
AF395.jpg 4.033333
AF822.jpg 2.15
AM99.jpg 3.566667
AF500.jpg 2.35
AF332.jpg 2.433333
CM599.jpg 2.616667
AF1733.jpg 4
AF419.jpg 2.733333
AM1310.jpg 2.616667
AM98.jpg 3.116667
AF378.jpg 2.933333
CM354.jpg 2.516667
AM123.jpg 4.383333
CM355.jpg 1.55
AM1591.jpg 4.35
AF1197.jpg 3.683333
AF612.jpg 2.3
AF260.jpg 2.266667
AF1141.jpg 3.15
CM277.jpg 2.55
AF272.jpg 3.366667
AM1454.jpg 2.616667
CF349.jpg 2.866667
AF1404.jpg 2.85
CF371.jpg 2.75
AM1497.jpg 3.016667
AF873.jpg 2.933333
CF172.jpg 3.2
AM359.jpg 2.366667
CM192.jpg 2.9
AM1671.jpg 4.216667
AF1465.jpg 4.033333
AF1540.jpg 1.383333
CF391.jpg 3.55
CM654.jpg 3.616667
AM1480.jpg 1.866667
AM1297.jpg 2.433333
AM300.jpg 2.433333
AM1775.jpg 4.45
AF1742.jpg 3.6
CM380.jpg 2.666667
CM54.jpg 3.133333
AF1396.jpg 4.05
AF1958.jpg 4.05
CF737.jpg 3.9
AF1297.jpg 3.383333
AM36.jpg 4.366667
AM1465.jpg 2.816667
CF650.jpg 4
AM1507.jpg 2.533333
CM285.jpg 2.65
AM1335.jpg 2.833333
AM1596.jpg 3.933333
AM1968.jpg 4.233333
AM1046.jpg 2.45
AM13.jpg 2.866667
CM117.jpg 2.55
AF175.jpg 3
CM492.jpg 2.333333
AM355.jpg 2.65
AF607.jpg 2.55
AM1213.jpg 2.216667
AF1065.jpg 3.85
AM923.jpg 2.083333
AF806.jpg 2.2
AM1824.jpg 2.85
AF1253.jpg 4.35
AF1387.jpg 4.016667
CM71.jpg 2.45
AF49.jpg 2.133333
AF812.jpg 3.916667
AF1474.jpg 4.033333
AM1248.jpg 2.5
AF1393.jpg 3.566667
CF2.jpg 3.933333
AF1331.jpg 3.9
CM5.jpg 2.666667
CF493.jpg 2.733333
AF1476.jpg 4.283333
AF1823.jpg 3.766667
AM344.jpg 2.133333
CF627.jpg 4.266667
AF682.jpg 3.85
AM1316.jpg 2.35
AM969.jpg 2.883333
AM788.jpg 2.683333
AM477.jpg 3.05
AM924.jpg 2.9
AF1427.jpg 3.566667
AM1908.jpg 2.1
AM1157.jpg 2.733333
AM893.jpg 2.1
AF1665.jpg 3.616667
AF1004.jpg 3.3
AF211.jpg 2.433333
AM1259.jpg 2.75
CF374.jpg 3.8
AM1004.jpg 2.3
AF766.jpg 2.466667
AF1687.jpg 3.733333
CM20.jpg 3.966667
AF1307.jpg 2.833333
AF1345.jpg 4.083333
CM129.jpg 2.95
AM1675.jpg 4.116667
AM787.jpg 2.733333
AM73.jpg 1.9
AM664.jpg 2.483333
CM287.jpg 3.016667
AM1705.jpg 3.433333
AF515.jpg 3.266667
AF468.jpg 2.683333
AF1171.jpg 4.283333
AM1758.jpg 3.616667
CM226.jpg 2.35
AF1208.jpg 4.316667
CM535.jpg 3.5
CF133.jpg 2.933333
AM454.jpg 2.4
AF1815.jpg 3.05
CM381.jpg 2.983333
CF298.jpg 2.933333
AM1018.jpg 2.883333
AF153.jpg 2.133333
AF141.jpg 2.333333
AF1254.jpg 3.666667
AF20.jpg 2.733333
AF1974.jpg 2.65
CF20.jpg 3.35
AF572.jpg 3.333333
AF244.jpg 4.216667
CM303.jpg 2.616667
AF45.jpg 2.666667
AM1924.jpg 2.75
AF1971.jpg 1.933333
CF632.jpg 3.666667
AM1901.jpg 2.633333
CM609.jpg 2.716667
AM1247.jpg 2.1
AM172.jpg 2.85
AF1298.jpg 3.8
AM1574.jpg 3.383333
CF92.jpg 3.033333
CM316.jpg 2.716667
CF331.jpg 2.15
CF113.jpg 2.85
AM781.jpg 2.866667
AM1909.jpg 2.733333
AF1367.jpg 3.083333
AM1821.jpg 3.2
AM518.jpg 2.016667
AM273.jpg 2.366667
CM671.jpg 4.433333
AF1514.jpg 4.033333
AF1082.jpg 2.633333
CM126.jpg 2.883333
AF525.jpg 2.283333
CM441.jpg 2.633333
AM1907.jpg 3.083333
AM1102.jpg 2.433333
AM556.jpg 2.9
AM1221.jpg 2.85
AM1109.jpg 2.15
AF226.jpg 2.133333
CM619.jpg 2.533333
AM1795.jpg 4.483333
AM615.jpg 2.466667
AM88.jpg 3.6
CF379.jpg 3.5
AF723.jpg 2.766667
CM199.jpg 2.45
AF950.jpg 3.566667
AF1684.jpg 4.433333
AM1250.jpg 2.666667
CM521.jpg 3.6
AF1807.jpg 2.716667
CF259.jpg 2.933333
AM418.jpg 1.95
AM699.jpg 3.033333
CF339.jpg 3.2
CM17.jpg 4.016667
AF668.jpg 2.183333
AM749.jpg 2.533333
CF366.jpg 2.716667
AF1744.jpg 3.016667
AF1642.jpg 2.8
CF670.jpg 4.516667
CF208.jpg 2.616667
AF1042.jpg 3.116667
AF311.jpg 2.533333
AF477.jpg 3.25
AF829.jpg 2.2
CM456.jpg 2.166667
AF1146.jpg 3.1
AF1789.jpg 3.65
AM774.jpg 2.766667
AF621.jpg 2.783333
AM479.jpg 2.183333
AM234.jpg 2.566667
AM658.jpg 2.55
AF997.jpg 3.733333
AF866.jpg 2.383333
CF532.jpg 3.033333
AM1655.jpg 2.85
AM1301.jpg 2.616667
CF605.jpg 3.716667
AF1129.jpg 4.166667
AF1719.jpg 3.883333
AF960.jpg 2.416667
AM1001.jpg 2.3
AM1363.jpg 1.666667
CF560.jpg 3.283333
CM6.jpg 3.95
AM1313.jpg 2.6
AM1536.jpg 2.616667
AM1754.jpg 3.733333
AF1144.jpg 2.716667
CM651.jpg 3.8
CM449.jpg 2.983333
AM1582.jpg 3.666667
AF1695.jpg 4.316667
CF539.jpg 2.783333
CM545.jpg 2.333333
AF642.jpg 2.7
AM1745.jpg 3.333333
CM517.jpg 2.616667
AM873.jpg 2.35
AM437.jpg 2.333333
AF499.jpg 3.083333
AF407.jpg 3.266667
CF156.jpg 2.983333
AM1269.jpg 2.3
CM581.jpg 2.65
AM1689.jpg 4.133333
AM1342.jpg 2.583333
CM68.jpg 3.183333
AM1620.jpg 2.416667
CM636.jpg 4.033333
CF87.jpg 2.066667
AM187.jpg 3.966667
CF31.jpg 2.683333
AF1375.jpg 3.383333
CF242.jpg 4.516667
AM249.jpg 2.433333
CM169.jpg 2.85
CF368.jpg 2.683333
CM544.jpg 2.816667
AM1822.jpg 3.933333
AF655.jpg 3.316667
AM1778.jpg 2.133333
AM1618.jpg 3.883333
AF1805.jpg 3.516667
CF393.jpg 2.9
AM1835.jpg 3.616667
CM175.jpg 3.25
AM881.jpg 2.483333
CM78.jpg 2.983333
AF1499.jpg 3.466667
CM709.jpg 4.25
AF1539.jpg 1.616667
AM571.jpg 2.433333
AM1987.jpg 3.966667
CF722.jpg 3.5
AF248.jpg 1.833333
CM60.jpg 2.833333
AM1133.jpg 2.716667
CF98.jpg 2.65
AM1478.jpg 2.3
AM572.jpg 2.85
CM479.jpg 2.216667
CF369.jpg 2.55
AM769.jpg 2.883333
AF1655.jpg 3
AM139.jpg 4.5
AM438.jpg 2.616667
CF277.jpg 2.033333
AF586.jpg 4.116667
AM45.jpg 4.266667
AF1460.jpg 3.666667
AM1387.jpg 2.066667
AF1204.jpg 2.8
AM451.jpg 2.666667
AF738.jpg 4.483333
AM1838.jpg 4.6
AF1906.jpg 3.133333
AF305.jpg 1.833333
AM1223.jpg 2.633333
CF52.jpg 2.516667
AF1344.jpg 3.716667
CF154.jpg 2.283333
CM460.jpg 3.4
CF545.jpg 3.833333
AM61.jpg 1.666667
AF323.jpg 2.516667
CM635.jpg 2.716667
AM1784.jpg 3.516667
AF547.jpg 2.666667
AF1569.jpg 3.966667
CM384.jpg 3.05
AF1565.jpg 3.3
CF386.jpg 3.066667
AF1503.jpg 2.916667
CF57.jpg 3.65
AM71.jpg 3.566667
CF341.jpg 3.133333
CF88.jpg 2.983333
AF1224.jpg 3.95
AM254.jpg 2.066667
AM1288.jpg 1.95
AM133.jpg 3.1
CF227.jpg 2.6
AF771.jpg 2.583333
CM448.jpg 3.166667
AF1685.jpg 3.833333
AF907.jpg 2.1
AM1419.jpg 1.816667
AF1394.jpg 3.283333
AF1262.jpg 3.8
AF1573.jpg 3.583333
CM504.jpg 2.45
AM755.jpg 2.583333
CF34.jpg 4.433333
AF636.jpg 3.583333
AM640.jpg 2.85
AM163.jpg 2.116667
AM145.jpg 3.033333
AM946.jpg 2.716667
CF682.jpg 4.283333
AM25.jpg 4.233333
AF1479.jpg 3.9
AF1323.jpg 2.916667
CM332.jpg 3.966667
AM1653.jpg 3.183333
AM399.jpg 2.883333
AM654.jpg 2.8
AF1547.jpg 4
CF136.jpg 2.466667
AF204.jpg 2.666667
AM409.jpg 2.566667
CF194.jpg 2.75
AF1137.jpg 2.7
CM187.jpg 4.133333
CF445.jpg 2.95
CF201.jpg 3
AF202.jpg 2.65
AF1901.jpg 4.15
AM605.jpg 2.383333
AM79.jpg 2.433333
CF611.jpg 4.316667
AM1976.jpg 3.25
AM1327.jpg 2.666667
CF712.jpg 3.85
AM408.jpg 2.3
AM1145.jpg 4.25
CF709.jpg 3.866667
AF317.jpg 3.916667
AM1660.jpg 3.583333
CM206.jpg 2.95
AF1512.jpg 2.983333
AF1089.jpg 2.033333
AM1222.jpg 2.816667
AF1767.jpg 3.95
AF1251.jpg 3.683333
AM1244.jpg 2.3
CM317.jpg 3.583333
AM1551.jpg 2.45
AF1470.jpg 3.216667
AM650.jpg 2.65
CF312.jpg 2.633333
AF1726.jpg 4.316667
AF404.jpg 2.633333
AF1518.jpg 3.433333
CF350.jpg 2.55
AM791.jpg 2.5
AM1140.jpg 2.583333
AF421.jpg 2.55
AF1419.jpg 3.816667
AM1414.jpg 2.65
AF1472.jpg 3.8
AM1487.jpg 2.45
CF540.jpg 3.55
CM666.jpg 4.166667
CF590.jpg 3.833333
AF1286.jpg 3.9
AF1052.jpg 2.783333
AM1234.jpg 2.15
AM1870.jpg 2.566667
AM1175.jpg 2.75
AF491.jpg 3.716667
AF1953.jpg 2.316667
AM1502.jpg 2.666667
CM324.jpg 2.983333
AF1066.jpg 1.683333
AF1384.jpg 3.966667
AF1189.jpg 2.733333
AM1915.jpg 2.983333
AF936.jpg 2.5
CM397.jpg 2.716667
AF1391.jpg 2.966667
AM264.jpg 1.533333
AM1853.jpg 3.75
AF1403.jpg 4.266667
AM307.jpg 4.2
CF521.jpg 2.266667
AM428.jpg 2.666667
CF695.jpg 4.316667
AF1181.jpg 2.5
AM263.jpg 2.25
CM104.jpg 2.883333
AM1080.jpg 2.616667
AM910.jpg 2.1
AM888.jpg 2.533333
AM1828.jpg 2.6
CF123.jpg 2.683333
AF486.jpg 2.416667
AF403.jpg 2.633333
CF39.jpg 2.516667
AF328.jpg 2.85
CM722.jpg 4.3
AF1294.jpg 2.266667
CM348.jpg 2.583333
AF1723.jpg 4.066667
AF1948.jpg 2.766667
CF615.jpg 3.883333
CM170.jpg 2.666667
CF295.jpg 3.8
AM1317.jpg 2.583333
AM652.jpg 2.566667
CM146.jpg 3.133333
AF410.jpg 2.266667
AF1494.jpg 3.7
CM420.jpg 3.75
AM805.jpg 2.15
AF1001.jpg 3.733333
AM313.jpg 2.416667
AF1712.jpg 3.5
AF1648.jpg 3.2
AM599.jpg 2
AM1373.jpg 2.066667
AF747.jpg 2.533333
CM645.jpg 3.633333
CM351.jpg 3.25
AM1768.jpg 2.766667
AF571.jpg 2.9
AF1280.jpg 4.316667
AF1480.jpg 2.733333
AF217.jpg 2.283333
AM825.jpg 2.816667
CF668.jpg 4.6
AF924.jpg 3.116667
AF1914.jpg 3.966667
CM249.jpg 2.583333
AM269.jpg 4.016667
AF1155.jpg 2.766667
AM1308.jpg 2.333333
AF100.jpg 2.9
CF606.jpg 3.916667
AF376.jpg 2.666667
AF90.jpg 1.783333
CF702.jpg 4.516667
AF221.jpg 2.433333
CF550.jpg 3.483333
CF399.jpg 3.05
AF1095.jpg 2.666667
CM120.jpg 3.333333
AF1532.jpg 3.55
AM327.jpg 3.1
CM254.jpg 2.833333
AM1640.jpg 4.283333
CM525.jpg 2.866667
AM49.jpg 4
AF1370.jpg 3.666667
AM1797.jpg 3.333333
AM1783.jpg 3.166667
AF1138.jpg 2.333333
AF1924.jpg 2.3
CF282.jpg 3.033333
AF708.jpg 1.9
AM682.jpg 2.6
AF1810.jpg 2.583333
AM718.jpg 2.516667
AM1521.jpg 1.85
AM491.jpg 2.4
AF1426.jpg 3.5
AF1794.jpg 3.333333
CM607.jpg 2.633333
AF101.jpg 2.35
CF225.jpg 2.916667
AM1121.jpg 2.566667
CM227.jpg 2.883333
AM751.jpg 2.533333
AF431.jpg 2.933333
CM393.jpg 2.983333
AF327.jpg 3.016667
AF245.jpg 2.6
CF707.jpg 4.4
AF400.jpg 2.783333
AM1656.jpg 3.633333
AF1182.jpg 2.916667
AM1380.jpg 2.833333
CM565.jpg 2.183333
AM1564.jpg 4
CM204.jpg 2.9
AM1235.jpg 2.283333
AM1929.jpg 4.183333
AF1049.jpg 2.95
AM1090.jpg 2.166667
AM1417.jpg 2.4
AM1766.jpg 3.666667
AF776.jpg 3.25
AM1060.jpg 2.066667
AM4.jpg 3.316667
AF1885.jpg 2.716667
CM447.jpg 2.683333
AF1778.jpg 2.083333
CF192.jpg 3.05
AM1700.jpg 4.183333
CM725.jpg 3.566667
CM508.jpg 2.3
AM279.jpg 2.35
AM612.jpg 2.783333
CF430.jpg 2.3
AF1703.jpg 4.016667
AF1934.jpg 2.45
AF1559.jpg 4.133333
AF821.jpg 1.9
AF338.jpg 3.1
CF132.jpg 2.65
AF1608.jpg 3.3
AM1759.jpg 4.016667
CF215.jpg 3.033333
AF7.jpg 2.566667
CF443.jpg 2.316667
AF891.jpg 2.283333
AM1431.jpg 2.716667
AF1574.jpg 3.766667
AM1314.jpg 2.6
AM441.jpg 2.066667
AF281.jpg 2.183333
CM750.jpg 3.216667
AF1863.jpg 3.5
AM1282.jpg 2.05
AF167.jpg 2.616667
AM1735.jpg 3.416667
AF712.jpg 2.616667
AF32.jpg 3.15
AM23.jpg 3.633333
AF124.jpg 2.566667
CM177.jpg 2.983333
AM1266.jpg 3.133333
AM1991.jpg 3.683333
AF429.jpg 2.466667
CF744.jpg 4.283333
AF1306.jpg 2.033333
AF702.jpg 3.316667
AM1613.jpg 4.233333
AF60.jpg 2.716667
CM684.jpg 3.116667
CF719.jpg 4.6
CM491.jpg 2.8
CM31.jpg 2.933333
AM687.jpg 2.616667
AF814.jpg 2.916667
AF1238.jpg 3.2
CM282.jpg 2.516667
AF87.jpg 2.333333
AF187.jpg 3.116667
AM1566.jpg 4.2
AM637.jpg 2.933333
AF1785.jpg 3.516667
AM807.jpg 2.283333
AM346.jpg 2.583333
AF1002.jpg 2.616667
CF672.jpg 3.25
AF651.jpg 2.65
CF610.jpg 4.316667
AF1324.jpg 4.05
AF1417.jpg 3.75
CM657.jpg 4.083333
AF360.jpg 2.316667
AM1720.jpg 4
AM295.jpg 2.55
AM204.jpg 2.1
CF496.jpg 1.85
AM624.jpg 2.3
AF855.jpg 4.1
AF112.jpg 2.65
AM84.jpg 3.566667
AF13.jpg 3.35
CF520.jpg 3.4
AM1203.jpg 2.833333
AF677.jpg 2.283333
CM39.jpg 2.616667
AM1091.jpg 2.366667
AF1987.jpg 1.8
AF1519.jpg 3.933333
AF743.jpg 2.966667
AM108.jpg 3.9
AM19.jpg 2.85
AM1576.jpg 4.316667
AM1228.jpg 2.366667
AM790.jpg 2.266667
AF841.jpg 2.416667
AM1708.jpg 4.483333
AF966.jpg 3.033333
AF1619.jpg 1.633333
AM720.jpg 2.85
AF1692.jpg 4.25
CF94.jpg 2.383333
AF161.jpg 1.95
CM602.jpg 3.366667
AF1242.jpg 4.15
AM52.jpg 1.983333
CM586.jpg 2.6
AM963.jpg 3.1
AF1927.jpg 4.2
AM675.jpg 2.733333
AF147.jpg 2.35
AF1541.jpg 3.55
CM216.jpg 3.233333
CF66.jpg 2.766667
AM242.jpg 2.116667
AF1287.jpg 3.3
AM1243.jpg 2.566667
AF627.jpg 2.533333
AF1173.jpg 2.216667
AM558.jpg 2.766667
AM1174.jpg 2.433333
AF219.jpg 2.133333
AM1021.jpg 2.85
AM880.jpg 2.666667
CF81.jpg 2.933333
CM540.jpg 3.083333
AF1046.jpg 2.283333
AF237.jpg 2.9
CM250.jpg 3.15
AM183.jpg 2.966667
AM1608.jpg 4.266667
AF703.jpg 2.483333
CF482.jpg 2.783333
AM1361.jpg 2.35
AM863.jpg 3.533333
AM251.jpg 2.883333
AF355.jpg 2.7
AM1149.jpg 1.816667
AF1724.jpg 3.716667
CF12.jpg 4.083333
AM1337.jpg 2.533333
AF1412.jpg 3.233333
CF337.jpg 2.616667
AF111.jpg 2.75
CF639.jpg 4.283333
AF1183.jpg 3.616667
AM1635.jpg 3.666667
AF620.jpg 2.5
AF1509.jpg 1.7
AM495.jpg 2.033333
AF1283.jpg 4.333333
CF584.jpg 4.416667
CF117.jpg 1.983333
CF725.jpg 3.95
CM520.jpg 2.783333
AF1453.jpg 1.15
CF406.jpg 2.45
AF1415.jpg 1.733333
AM1723.jpg 4.283333
AM277.jpg 2.55
AM1155.jpg 2.666667
AM1163.jpg 2.5
CM610.jpg 3.05
CF739.jpg 3.683333
CF674.jpg 3.966667
AF576.jpg 2.55
AF256.jpg 2.8
AF1337.jpg 2.466667
AF1718.jpg 3.75
AM1841.jpg 2.4
AF287.jpg 1.7
CF41.jpg 2.183333
AM730.jpg 2.933333
CM52.jpg 2.983333
AF415.jpg 2.55
CF176.jpg 2.733333
AF310.jpg 2.483333
CF595.jpg 4.016667
AM1151.jpg 2.566667
AM1459.jpg 3.2
AF1747.jpg 3.6
AF1285.jpg 3.966667
CF714.jpg 4.3
AM1598.jpg 4.116667
CF453.jpg 2.266667
AM292.jpg 2.55
AF1413.jpg 3.366667
AF684.jpg 2.85
AM1849.jpg 2.9
AF152.jpg 2.683333
AF1553.jpg 3.833333
CM388.jpg 2.65
AM1960.jpg 3.433333
AF439.jpg 2.783333
AM1903.jpg 2.633333
AM965.jpg 2.966667
CM150.jpg 2.933333
AM895.jpg 2.616667
CM624.jpg 2.433333
AF1625.jpg 2.083333
AF1581.jpg 4.116667
CF588.jpg 3.55
CF716.jpg 3.416667
AF687.jpg 2.733333
AF1497.jpg 2.85
CF749.jpg 4.116667
AM912.jpg 2.65
CM253.jpg 2.266667
AF1929.jpg 3.7
CM29.jpg 1.8
AM1940.jpg 4.3
AF345.jpg 1.5
AF262.jpg 2.4
CF747.jpg 3.233333
CM580.jpg 2.366667
AF1461.jpg 3.316667
AF1256.jpg 2.35
AM725.jpg 2.95
AF19.jpg 3.033333
AM1409.jpg 3.1
AM539.jpg 2.4
CF184.jpg 2.7
CM589.jpg 2.883333
AM1802.jpg 4.383333
AM1920.jpg 2.583333
AM984.jpg 3.283333
CF358.jpg 3.083333
CF732.jpg 3.766667
AF643.jpg 2.2
CM153.jpg 2.1
AF523.jpg 2.4
AF1752.jpg 4.1
AM521.jpg 2.55
CF158.jpg 2.4
AM670.jpg 2.45
AF1180.jpg 3.65
AM707.jpg 1.8
CF475.jpg 3.416667
CM123.jpg 3.25
AM48.jpg 4.016667
CM472.jpg 2.85
AM156.jpg 4
CF456.jpg 3.666667
AF1381.jpg 3.633333
AM903.jpg 2.366667
CF260.jpg 2.816667
AM217.jpg 3.883333
AM647.jpg 2.783333
AF1039.jpg 4.2
AF132.jpg 2.233333
AF1720.jpg 3.566667
CF586.jpg 4.183333
AM1517.jpg 2.383333
AM908.jpg 2.366667
AF817.jpg 2.666667
CM231.jpg 2.416667
AF73.jpg 3.033333
CF203.jpg 2.016667
AM1501.jpg 2.65
AF906.jpg 2.95
AF1402.jpg 3.833333
CF429.jpg 2.716667
CM191.jpg 2.983333
AM20.jpg 1.9
AF426.jpg 2.366667
CF149.jpg 3.583333
CF18.jpg 4.383333
AM733.jpg 2.833333
AM114.jpg 3.2
AF863.jpg 2.783333
AF1464.jpg 3.433333
AM1331.jpg 2.65
AM1927.jpg 3.833333
AM622.jpg 1.75
AM10.jpg 1.166667
AM96.jpg 2.316667
AF1424.jpg 2.983333
CF509.jpg 2.7
AF143.jpg 1.783333
CM13.jpg 4.15
AM1583.jpg 1.35
AF350.jpg 2.266667
CM375.jpg 2.733333
AM1519.jpg 2.316667
AF242.jpg 2.766667
CM196.jpg 2.966667
CM659.jpg 4.2
AF420.jpg 3.416667
CF484.jpg 2.9
CM144.jpg 2.333333
AM1338.jpg 2.433333
CF68.jpg 3.6
AF1806.jpg 4.116667
AM1130.jpg 2.033333
AF596.jpg 2.833333
AM1985.jpg 2.183333
AF1790.jpg 2.033333
AM93.jpg 2.133333
AF1537.jpg 3.633333
AF885.jpg 4.216667
CM248.jpg 1.883333
AF1910.jpg 3.65
AF1316.jpg 4.05
AF1912.jpg 4.033333
AM1227.jpg 2.366667
AM90.jpg 1.883333
AF173.jpg 2.316667
AF1096.jpg 2.366667
AM37.jpg 3.066667
AF1446.jpg 3.766667
AM620.jpg 2.75
AM398.jpg 2.75
AF1784.jpg 3.05
CF14.jpg 4.4
AF285.jpg 2.916667
CM403.jpg 3.183333
AM874.jpg 2.3
AM1638.jpg 4.2
AF1890.jpg 1.15
AF1484.jpg 3.6
AF973.jpg 3
AF1706.jpg 3.5
AM632.jpg 2.766667
AF784.jpg 3.4
CM44.jpg 3.233333
AF506.jpg 2.983333
AM1805.jpg 3.666667
CF49.jpg 4.066667
AF1787.jpg 3.966667
AF931.jpg 2.666667
AF209.jpg 2.733333
CF61.jpg 3.983333
AF207.jpg 2.883333
CF440.jpg 3.116667
AM1399.jpg 2.766667
CF628.jpg 4.316667
CM477.jpg 2.8
AF673.jpg 3.083333
AM136.jpg 2.566667
CF228.jpg 2.75
CF152.jpg 2.15
AF1534.jpg 4.2
AM1374.jpg 2.65
AM724.jpg 1.983333
AM422.jpg 2.5
CM176.jpg 2.5
AF1099.jpg 4.183333
AM362.jpg 2.5
AF293.jpg 2.566667
CM585.jpg 2.85
AM1571.jpg 3.666667
AF1501.jpg 3.933333
AF1729.jpg 3.133333
AM1393.jpg 2.6
AF364.jpg 2.8
AF1657.jpg 3.316667
AM1388.jpg 2.733333
CF300.jpg 2.216667
AF914.jpg 3.783333
AM1684.jpg 3.666667
AF433.jpg 3.916667
AM1682.jpg 3.916667
CF351.jpg 2.3
AF42.jpg 2.3
CF516.jpg 3.416667
AF1705.jpg 3.133333
CF608.jpg 2.283333
AF800.jpg 2.016667
CF150.jpg 3.6
AM1948.jpg 3.383333
AM1483.jpg 2.75
AF1570.jpg 2.5
AF233.jpg 2.933333
AF1763.jpg 3.8
AF1194.jpg 4.233333
AF638.jpg 2.4
AM1752.jpg 3.9
AF1994.jpg 2.683333
AM1767.jpg 2.1
AF541.jpg 2.65
AM944.jpg 1.783333
CF497.jpg 2.883333
CM346.jpg 2.466667
AM1191.jpg 2.533333
AF1761.jpg 3.883333
CM70.jpg 2.816667
AF1777.jpg 3.683333
CF64.jpg 3.166667
AF239.jpg 2.866667
AM1777.jpg 3.7
CM84.jpg 2.7
AM1289.jpg 2.65
AF258.jpg 2.3
AF1961.jpg 2.666667
AM1495.jpg 2.7
CF625.jpg 3.983333
CM558.jpg 2.433333
AF1757.jpg 2.783333
AF15.jpg 2.8
AF509.jpg 2.633333
AM891.jpg 2.716667
AF758.jpg 3.733333
AM1290.jpg 2.466667
AM1324.jpg 2.6
AM1197.jpg 2.216667
CF333.jpg 2.4
AM159.jpg 2.133333
AM909.jpg 2.533333
AM1443.jpg 2.316667
AM371.jpg 2.716667
CF390.jpg 2.6
AM493.jpg 2.433333
AM1533.jpg 1.833333
AF952.jpg 3.266667
AF1946.jpg 1.7
CF481.jpg 2.416667
AF1034.jpg 3.05
CM701.jpg 4.016667
AM1255.jpg 2.35
CF36.jpg 2.866667
AM1455.jpg 1.75
AM1462.jpg 2.1
AM1319.jpg 2.533333
CF652.jpg 3.95
AF259.jpg 2
CF564.jpg 3.866667
AM1066.jpg 2.65
AF688.jpg 1.616667
AM701.jpg 1.983333
CM683.jpg 3.366667
AF1583.jpg 3.8
CF631.jpg 3.75
AF790.jpg 2.916667
CM338.jpg 2.35
AM1257.jpg 2.6
CM305.jpg 2.983333
AF1802.jpg 3.85
AF530.jpg 2.833333
AM1466.jpg 4.016667
AM1865.jpg 3.2
AF1892.jpg 3.7
AM1256.jpg 2.766667
AF1572.jpg 4.3
AM226.jpg 2.6
CM142.jpg 3.216667
AM1396.jpg 2.766667
AM229.jpg 2.616667
CM640.jpg 2.916667
AF1950.jpg 2.816667
CM4.jpg 4.316667
AF1449.jpg 3.85
AF922.jpg 1.683333
CM677.jpg 4.083333
CF167.jpg 3.166667
AF12.jpg 2.083333
AM413.jpg 3.25
AM410.jpg 2.466667
AM1958.jpg 2.416667
CM272.jpg 3.2
CF297.jpg 2.433333
AF1028.jpg 2.133333
AM1161.jpg 2.65
AF1000.jpg 3.966667
AM789.jpg 2.366667
AM861.jpg 2.6
CF16.jpg 3.65
AF865.jpg 2.4
AF10.jpg 3.433333
AF406.jpg 2.583333
AF1754.jpg 3.9
CM551.jpg 3.1
CF479.jpg 2.7
AF188.jpg 2.883333
CM207.jpg 2.3
AM1116.jpg 2.5
AF721.jpg 2.6
CF91.jpg 1.883333
CM440.jpg 2.083333
AF1255.jpg 4.216667
AF1587.jpg 3.533333
AF503.jpg 4.35
AM1965.jpg 2.85
CF415.jpg 2.683333
AM1237.jpg 2.566667
CM615.jpg 3.033333
AF1336.jpg 3.783333
AF1293.jpg 4.033333
AF1490.jpg 3.65
CM164.jpg 2.883333
AF1585.jpg 3.75
AF1679.jpg 2.983333
AF1816.jpg 4.566667
AF545.jpg 3.883333
AF1029.jpg 3.95
AM130.jpg 3.666667
CM703.jpg 4.116667
AF1366.jpg 3.533333
AF846.jpg 1.733333
AM1967.jpg 3.466667
AM216.jpg 2.9
AM1074.jpg 2.6
AM1547.jpg 2.233333
AF1349.jpg 2.383333
AF1109.jpg 3.883333
AF430.jpg 2.816667
AM1662.jpg 4.283333
CM442.jpg 2.766667
AF1188.jpg 2.516667
AF39.jpg 1.85
AM1670.jpg 2.866667
CM157.jpg 3.8
AM942.jpg 2.866667
AM1224.jpg 2.533333
AF1187.jpg 3.8
AF1751.jpg 3.65
AF1804.jpg 3.65
AF1433.jpg 3.216667
AF98.jpg 2
CM690.jpg 4.15
AF1596.jpg 3.066667
AF205.jpg 3.5
AF528.jpg 2.916667
AF1043.jpg 2.516667
AF1231.jpg 3.983333
AF1076.jpg 1.4
AM947.jpg 2.016667
AF1263.jpg 3.116667
AM509.jpg 2.833333
AM1707.jpg 3.533333
CM119.jpg 2.816667
AM1072.jpg 3.05
AF274.jpg 2.95
AF882.jpg 4.133333
AM1299.jpg 2.6
CF452.jpg 3.016667
CF552.jpg 4.3
AM1651.jpg 3.783333
AM982.jpg 2.683333
AM1118.jpg 2.316667
AF1351.jpg 2.45
AM1094.jpg 2.75
AM826.jpg 2.5
AF183.jpg 2.666667
AM220.jpg 2.133333
CF689.jpg 4.483333
AF1893.jpg 3.083333
AF1903.jpg 4.066667
AF730.jpg 2.5
AM1280.jpg 2.783333
AM142.jpg 3.083333
AF1438.jpg 3.166667
AM147.jpg 3.816667
AF89.jpg 1.65
AF1115.jpg 4.016667
CF494.jpg 2.183333
AF591.jpg 2.65
CM613.jpg 1.583333
AM1113.jpg 2.95
AF1389.jpg 3.683333
CF283.jpg 2.816667
AF1740.jpg 4.2
AF935.jpg 2.9
AM1679.jpg 4.1
AM1786.jpg 3.85
CF530.jpg 2.766667
AF905.jpg 4.416667
AF21.jpg 2.516667
AM1852.jpg 4.033333
AM356.jpg 2.65
CM637.jpg 4.183333
AF1662.jpg 3.233333
AM427.jpg 2.65
AM659.jpg 2.7
AM656.jpg 2.983333
CF570.jpg 3.183333
AM69.jpg 2.933333
CM528.jpg 3.533333
CF684.jpg 3.566667
AF1282.jpg 3.466667
AF35.jpg 2.766667
AM1212.jpg 2.466667
AM200.jpg 2.333333
AF1232.jpg 3.183333
AM1226.jpg 2.8
AM1881.jpg 3.683333
CF254.jpg 2.966667
AF694.jpg 1.616667
AF1905.jpg 3.566667
AF1739.jpg 2.283333
AF962.jpg 3.983333
AM901.jpg 2.533333
AM247.jpg 3.883333
AF1258.jpg 3.316667
CF436.jpg 3.166667
CF630.jpg 4.05
AM928.jpg 2.55
AF1638.jpg 3.833333
AM1925.jpg 3.516667
AF1047.jpg 3.65
AF1101.jpg 3.8
AF635.jpg 2.9
CM232.jpg 2.733333
AF1734.jpg 3.833333
AF1599.jpg 3.466667
CM47.jpg 2.75
AF1875.jpg 2.233333
CM529.jpg 2.333333
AF1106.jpg 3.516667
AF471.jpg 3.25
CF423.jpg 3.833333
CF23.jpg 4.166667
AF1026.jpg 3.65
AM325.jpg 3.65
AF1190.jpg 2.65
AF1773.jpg 2.566667
AF299.jpg 2.25
AM299.jpg 2.816667
AM1048.jpg 2.533333
AF390.jpg 2.683333
AF108.jpg 2.783333
CM390.jpg 3.116667
AM121.jpg 2.55
CF46.jpg 2.483333
AM1471.jpg 2.3
CF507.jpg 2.75
AF480.jpg 3.116667
AM1623.jpg 3.4
CF6.jpg 4.283333
CM255.jpg 3.416667
AM1059.jpg 2.016667
AM87.jpg 3.633333
AM1328.jpg 2.4
AF255.jpg 1.783333
AM1809.jpg 3.083333
AF340.jpg 2.616667
AM507.jpg 2.633333
AF1225.jpg 2.8
CM564.jpg 3.166667
AM1193.jpg 2.866667
CM76.jpg 2.466667
AF1969.jpg 3.1
CM11.jpg 4.416667
CM431.jpg 2.65
AM1911.jpg 3.416667
AM587.jpg 2.8
AM1315.jpg 2.433333
CM518.jpg 2.766667
AM1961.jpg 3.816667
AM1123.jpg 2.15
AM748.jpg 2.95
AM1649.jpg 3.55
CF249.jpg 2.8
CF582.jpg 4.233333
CM732.jpg 4.4
AM1375.jpg 2.883333
AM1912.jpg 2.95
AF991.jpg 2.783333
AF1803.jpg 3.516667
AF848.jpg 2.916667
AM1285.jpg 2.166667
AM913.jpg 2.383333
AM149.jpg 2.683333
AF1984.jpg 2.333333
AF1643.jpg 3.616667
AM492.jpg 2.4
AF1809.jpg 2.866667
AF1721.jpg 2.933333
AM1839.jpg 2.616667
AM976.jpg 1.916667
AM902.jpg 2.883333
AM1937.jpg 3.683333
CM326.jpg 2.016667
AM822.jpg 2.8
AM1211.jpg 2.1
AF1020.jpg 2.866667
AM1744.jpg 3.233333
CM721.jpg 4.033333
CF356.jpg 2.8
CF166.jpg 2.433333
CF280.jpg 2.05
AM1658.jpg 3.466667
AF1068.jpg 4.116667
AM916.jpg 2.666667
AF641.jpg 2.483333
CF734.jpg 3.9
AF831.jpg 2.383333
AM527.jpg 2.65
AM999.jpg 2.366667
AM1204.jpg 2.533333
CM66.jpg 3.6
AF944.jpg 4
AF1827.jpg 4.166667
AF898.jpg 4.066667
AM1011.jpg 2.75
AF1925.jpg 3.35
AF1980.jpg 3.533333
CM471.jpg 2.8
AM636.jpg 1.883333
AF892.jpg 3.8
AM1716.jpg 3.95
CM642.jpg 3.233333
AM763.jpg 2.583333
AM639.jpg 2.55
CF343.jpg 2.933333
AM1526.jpg 2.916667
AM280.jpg 2.283333
AF569.jpg 3.716667
AM105.jpg 3.316667
CM748.jpg 3.716667
AF1126.jpg 2.583333
AM42.jpg 3.566667
AM106.jpg 3.1
AF1122.jpg 3.6
CM323.jpg 1.866667
CF274.jpg 2.583333
AF1169.jpg 3.6
CM61.jpg 2.05
CF514.jpg 2.283333
AM1192.jpg 2.883333
AF464.jpg 3.316667
AM1015.jpg 2.333333
AF759.jpg 2.25
AM1019.jpg 2.7
CF653.jpg 4.416667
AF1437.jpg 4.316667
CF291.jpg 3.3
CF147.jpg 2.35
AF1957.jpg 3.4
AF472.jpg 3.016667
AM1143.jpg 2.35
AF735.jpg 2.5
CM590.jpg 4.033333
CF387.jpg 2.433333
CM415.jpg 2.883333
AM1693.jpg 4.266667
AF1085.jpg 2.283333
AF1988.jpg 1.966667
AM1749.jpg 3.033333
AF982.jpg 2.883333
AF930.jpg 4.016667
AM1346.jpg 2.55
CM546.jpg 3.15
AM812.jpg 2.1
AM1233.jpg 2.616667
AM1077.jpg 2.5
AF1937.jpg 3.2
AF1243.jpg 2.2
AF458.jpg 2.55
AM196.jpg 2.666667
CF461.jpg 2.7
AF383.jpg 2.483333
AM490.jpg 2.566667
AM586.jpg 2.65
AM1800.jpg 4.066667
AF1968.jpg 1.816667
AM973.jpg 2.85
AF1246.jpg 3.066667
AF1273.jpg 1.283333
AF1100.jpg 2.666667
AM1265.jpg 2.083333
AM152.jpg 4.316667
AF475.jpg 1.85
AF1036.jpg 2.75
AF1041.jpg 2.383333
CM2.jpg 3.7
AF1233.jpg 2.766667
AM745.jpg 2.9
AF1161.jpg 2.066667
AM380.jpg 2.6
AF432.jpg 3.033333
AF926.jpg 3.933333
CF502.jpg 2.816667
AF116.jpg 1.983333
CF78.jpg 2.266667
AM513.jpg 2.65
CF141.jpg 3.583333
AF1602.jpg 3.7
CM214.jpg 2.85
AM974.jpg 2.483333
AF1970.jpg 2.916667
AM1757.jpg 4.2
AM353.jpg 2.533333
AF275.jpg 2.6
AF1579.jpg 4.1
AF318.jpg 2.016667
AF1544.jpg 3.033333
CM395.jpg 2.65
AF827.jpg 2.933333
AF1112.jpg 4.233333
AM1854.jpg 3.95
CF675.jpg 3.95
AM60.jpg 3.3
AM1378.jpg 2.666667
AF1198.jpg 3.766667
CF257.jpg 2.933333
AM298.jpg 1.95
AF1299.jpg 3.716667
AM1162.jpg 4.1
CF681.jpg 3.683333
CM614.jpg 2.416667
AM994.jpg 2.716667
AM837.jpg 2.8
CM1.jpg 3.116667
AM1014.jpg 1.866667
AF1877.jpg 4.05
CM211.jpg 2.733333
CM376.jpg 3.116667
AF210.jpg 2.116667
AF36.jpg 2.483333
AF1495.jpg 4.033333
AM569.jpg 2.9
CF591.jpg 4.216667
AF983.jpg 3.6
AM824.jpg 2.45
AM726.jpg 2.833333
AF140.jpg 2.016667
AM1930.jpg 4.3
CF435.jpg 2.833333
AF1613.jpg 4
AM365.jpg 2.783333
AM248.jpg 4.133333
CM530.jpg 3.133333
AM709.jpg 2.8
AM1946.jpg 3.166667
AF895.jpg 3.516667
AF947.jpg 3.35
CF255.jpg 2.15
AF536.jpg 1.85
AF1142.jpg 2.666667
CF404.jpg 2.233333
CF82.jpg 2.95
CM729.jpg 4.15
AF1846.jpg 3.7
CF708.jpg 4.133333
CF293.jpg 3.183333
AM1199.jpg 2.683333
AF1772.jpg 3.5
AF773.jpg 2.516667
AF560.jpg 2.283333
CM201.jpg 3.283333
CF329.jpg 2.9
AF884.jpg 2.45
CF367.jpg 3.15
AF1158.jpg 4.416667
AF336.jpg 2.65
AF959.jpg 3.35
CM115.jpg 2.866667
AM804.jpg 2.816667
AM1567.jpg 4.233333
AM284.jpg 1.716667
CF746.jpg 2.766667
AM1049.jpg 2.85
CM244.jpg 3
CF381.jpg 2.466667
CF267.jpg 2.766667
CM294.jpg 2.533333
AM1447.jpg 2.75
AF1104.jpg 4.133333
AF75.jpg 2.3
AM1796.jpg 3.95
CF691.jpg 3.45
AM435.jpg 2.183333
CM156.jpg 2.366667
CM222.jpg 2.983333
AF1759.jpg 3.983333
AF435.jpg 1.683333
AF149.jpg 2.35
AF809.jpg 2.833333
CM548.jpg 2.55
AF1010.jpg 2.583333
CF666.jpg 4.333333
AM92.jpg 2.916667
CM582.jpg 2.433333
CF474.jpg 2.15
AM1309.jpg 2.7
AF1315.jpg 2.8
CF101.jpg 2.483333
AM1251.jpg 2.85
AF48.jpg 2.3
AM1360.jpg 2.216667
AF496.jpg 2.233333
AM550.jpg 2.466667
AF526.jpg 3.116667
AF362.jpg 2.016667
CF3.jpg 4.283333
AF1884.jpg 2.733333
AM496.jpg 2.416667
AF1358.jpg 2.416667
AF1410.jpg 3.216667
CF661.jpg 4.2
AM882.jpg 2.783333
CF383.jpg 2.966667
AM1691.jpg 4.05
AM998.jpg 2.583333
AF123.jpg 2.033333
AF1760.jpg 2.283333
AM1252.jpg 2.2
AF769.jpg 2.583333
CM392.jpg 2.7
AF795.jpg 2.566667
AF717.jpg 2.033333
AF1291.jpg 4.4
AM1789.jpg 3.316667
CM217.jpg 2.816667
AF512.jpg 2.466667
AM290.jpg 2.2
AF883.jpg 3.166667
AM176.jpg 2.3
CF59.jpg 2.15
CF42.jpg 3.333333
AF1634.jpg 4
CM628.jpg 2.6
AM476.jpg 2.666667
AM1167.jpg 2.733333
AM1803.jpg 2.716667
AM468.jpg 2.133333
AM1017.jpg 2.283333
AM308.jpg 3.866667
AF1531.jpg 3.233333
AM1457.jpg 2.55
AF752.jpg 2.433333
AM255.jpg 2.766667
AF1913.jpg 2.833333
CM652.jpg 3.516667
AF925.jpg 2.35
AM1607.jpg 2.95
AM1897.jpg 3.983333
AF844.jpg 2.766667
CF534.jpg 2.733333
CM734.jpg 4.066667
AF1649.jpg 3.283333
AM1863.jpg 3.833333
CM405.jpg 3.133333
AF1247.jpg 3.85
CM430.jpg 2.483333
AM1731.jpg 3.666667
AM1819.jpg 3.35
CF53.jpg 2.116667
AF313.jpg 2.6
AF1796.jpg 2.083333
CM147.jpg 2.433333
CF463.jpg 2.65
AF102.jpg 2.8
CM718.jpg 4
CF601.jpg 3.516667
CF251.jpg 1.733333
CF576.jpg 4.583333
AF1145.jpg 2.016667
AM633.jpg 2.733333
AF1172.jpg 3.916667
AM219.jpg 2.5
AM1291.jpg 2.216667
AF709.jpg 2.816667
AF185.jpg 2.15
AF1201.jpg 3.283333
CF190.jpg 2.416667
CF565.jpg 3.533333
AM1415.jpg 2.183333
AF744.jpg 2.383333
CF33.jpg 3.433333
CM664.jpg 3.8
AM347.jpg 2.433333
AF470.jpg 3.616667
CM322.jpg 3.016667
CM736.jpg 4.016667
CF178.jpg 2.75
CF221.jpg 2.616667
AM710.jpg 2.6
AF1843.jpg 3.5
AM486.jpg 2.416667
AM1557.jpg 2.116667
CF7.jpg 3.916667
AM1535.jpg 2.066667
CM87.jpg 2.883333
AF788.jpg 1.383333
AM190.jpg 4.116667
AF604.jpg 2.8
AM1872.jpg 3.266667
CF620.jpg 4.516667
CF346.jpg 2.7
AM221.jpg 2.366667
AM1353.jpg 2.4
AF1524.jpg 3.9
AF693.jpg 2.783333
CM457.jpg 3.2
AF1380.jpg 2.366667
AM1401.jpg 2.4
AF940.jpg 3.3
AF1308.jpg 3.55
AF1954.jpg 2.783333
AM1600.jpg 4.233333
CF95.jpg 2.066667
CF171.jpg 2.45
CF146.jpg 3.283333
AF465.jpg 2.383333
CM611.jpg 2.916667
AM382.jpg 2.466667
AF1116.jpg 4.016667
AF533.jpg 2.8
AF312.jpg 2.233333
AM1543.jpg 2.733333
AM814.jpg 2.383333
CM59.jpg 3.466667
AM1477.jpg 2.5
AM907.jpg 2.783333
AM585.jpg 2.7
AF324.jpg 2.833333
AF566.jpg 2.35
AF31.jpg 3.183333
AM698.jpg 2.666667
CM239.jpg 3.25
CF376.jpg 2.45
AM1027.jpg 2.283333
AM1306.jpg 2.533333
AM1955.jpg 3.016667
CF25.jpg 3.966667
CM124.jpg 2.7
AM431.jpg 3.083333
AF1148.jpg 3.816667
AM27.jpg 4.05
AM9.jpg 3.916667
AM1584.jpg 2.333333
AM472.jpg 2.85
CM743.jpg 4.016667
CF119.jpg 2.55
CF700.jpg 3.716667
AF751.jpg 3.1
AM1553.jpg 2.85
AM703.jpg 2.716667
AM897.jpg 2.516667
CM311.jpg 2.5
AF97.jpg 2.3
AF1783.jpg 3.616667
AM1075.jpg 2.633333
AF986.jpg 2.183333
AF1166.jpg 3.75
AF658.jpg 2.8
AM1435.jpg 2.683333
CM485.jpg 3.783333
CM79.jpg 3.1
CF266.jpg 2.866667
CM55.jpg 4.55
AF1398.jpg 1.366667
AF932.jpg 3.133333
CM568.jpg 2.116667
AM1369.jpg 2.583333
CM345.jpg 2.483333
AF1421.jpg 3.166667
CF566.jpg 4.433333
AF508.jpg 2.216667
AM829.jpg 2.516667
AF1390.jpg 4.133333
AF70.jpg 2.916667
AM453.jpg 2.733333
CM116.jpg 2.883333
AM1529.jpg 3.166667
CM158.jpg 2.766667
AM1717.jpg 3.866667
AM651.jpg 2.85
AM1941.jpg 3.533333
AF1156.jpg 4.183333
AF119.jpg 2.266667
AF1186.jpg 2.2
AM857.jpg 2.75
CM246.jpg 3.183333
CM100.jpg 2.833333
AF1762.jpg 3.783333
CF222.jpg 2.766667
CM118.jpg 2.466667
CF572.jpg 3.633333
AM1164.jpg 2.716667
CF485.jpg 2.666667
AF1090.jpg 3.966667
AM1173.jpg 1.9
AF176.jpg 2.116667
AF805.jpg 2.45
AM89.jpg 3.016667
AF755.jpg 4.25
AF118.jpg 2.8
AM1512.jpg 2.75
CM552.jpg 2.7
AM1332.jpg 2.433333
AM744.jpg 2.95
AM1896.jpg 3.216667
CM325.jpg 2.716667
CM593.jpg 3.2
AF1371.jpg 3.633333
AF1154.jpg 4.1
AF1205.jpg 4.133333
CF151.jpg 2.683333
AF657.jpg 2.416667
AM966.jpg 2.9
AF206.jpg 2.683333
CM524.jpg 2.166667
CM173.jpg 3.316667
AM309.jpg 2.65
AF1527.jpg 3.833333
AF1841.jpg 2.983333
AM174.jpg 2.916667
CF593.jpg 3.8
AF96.jpg 3.1
AF68.jpg 2.766667
AF240.jpg 3.066667
CM434.jpg 3.033333
AM1769.jpg 3.833333
AM856.jpg 2.216667
AM1196.jpg 2.366667
CF238.jpg 2.533333
AM836.jpg 2.816667
AF628.jpg 2.633333
AF179.jpg 2.033333
AM683.jpg 2.983333
AM1751.jpg 3.933333
AF1193.jpg 2.3
AM663.jpg 2.666667
CM691.jpg 3.8
CM347.jpg 2.4
AF1618.jpg 2.533333
AM1856.jpg 4.3
AM938.jpg 2.9
AM40.jpg 4.2
AF1624.jpg 3.15
AM1812.jpg 2.833333
CF629.jpg 3.583333
AM1311.jpg 2.866667
AF446.jpg 3.05
AM1971.jpg 4.066667
AF1716.jpg 3.45
AM1009.jpg 2.716667
AM443.jpg 2.083333
CF677.jpg 3.866667
AM1790.jpg 4.083333
CM490.jpg 3.416667
AF1456.jpg 4.066667
AF1107.jpg 4.216667
AM1081.jpg 2.166667
AM1051.jpg 2.8
AF1922.jpg 3.383333
AM832.jpg 2.1
AF728.jpg 1.616667
CM367.jpg 2.016667
AM1303.jpg 2.15
CM163.jpg 3.7
CM12.jpg 4.45
CM406.jpg 3.016667
CF511.jpg 2.05
AM578.jpg 2.316667
AM113.jpg 3.3
CF600.jpg 4.2
CF310.jpg 2.65
CM506.jpg 3.733333
CF649.jpg 3.683333
AM1216.jpg 2.3
CM443.jpg 2.65
AM1020.jpg 3.95
AF1748.jpg 3.883333
AF1793.jpg 4.016667
AM872.jpg 2.1
AF163.jpg 2.8
AF965.jpg 2.933333
AF953.jpg 3.833333
AF64.jpg 2.3
AF945.jpg 3.2
AF1257.jpg 4.2
AM576.jpg 2.4
CM340.jpg 2.283333
AF623.jpg 3.016667
AM297.jpg 2.166667
CM399.jpg 2.85
CM605.jpg 2.583333
CM56.jpg 2.316667
CM235.jpg 2.55
AM95.jpg 2.333333
AF1735.jpg 3.883333
CM352.jpg 2.816667
CF323.jpg 2.666667
AF532.jpg 2.15
AF1081.jpg 2.9
AF1715.jpg 2.583333
AF783.jpg 4.316667
AM1367.jpg 2.4
CM98.jpg 2.4
CM165.jpg 2.633333
AF537.jpg 2.483333
AF408.jpg 3.1
AF467.jpg 3.266667
AM898.jpg 2.383333
AF1808.jpg 3.8
AM66.jpg 3.15
AM839.jpg 2.716667
CM276.jpg 2.833333
CF127.jpg 2.8
CF317.jpg 2.9
AM1891.jpg 3.933333
AF1400.jpg 3.583333
AF660.jpg 2.5
CM672.jpg 3.966667
CF120.jpg 2.55
CF364.jpg 2.933333
AM375.jpg 2.816667
CF563.jpg 4.15
AM488.jpg 2.066667
AF1222.jpg 3.7
CM200.jpg 3.566667
AM1135.jpg 2.3
CM33.jpg 2.883333
AF1399.jpg 3.183333
AF1473.jpg 2.816667
AM823.jpg 2.666667
AF1881.jpg 3.633333
AF778.jpg 2.8
AM257.jpg 2.616667
CF703.jpg 4.066667
AM498.jpg 2.633333
AM372.jpg 2.133333
AF1214.jpg 3.116667
CM18.jpg 2.583333
AF724.jpg 4.283333
AM1834.jpg 3.516667
AF601.jpg 2.25
AM1067.jpg 2.133333
CM256.jpg 2.783333
CF315.jpg 2.866667
CM154.jpg 3.7
AF1310.jpg 2.25
AM1683.jpg 3.366667
AM1643.jpg 3.833333
AF1891.jpg 4.266667
AM1634.jpg 2.916667
AF579.jpg 2.516667
AF236.jpg 3.9
AF224.jpg 2.683333
AF617.jpg 2.483333
AM74.jpg 1.6
AM236.jpg 1.733333
AM16.jpg 3.916667
AF1824.jpg 1.983333
AF1623.jpg 3.983333
AF1977.jpg 4.45
AF1226.jpg 2.3
AM360.jpg 2.75
AF1140.jpg 3.9
AF497.jpg 2.05
AF1637.jpg 3.983333
CF662.jpg 4.066667
AM954.jpg 2.783333
AF1672.jpg 3.2
AM693.jpg 2.866667
AF495.jpg 2.533333
AF1606.jpg 3.166667
CF523.jpg 2.35
AF852.jpg 2.8
AF789.jpg 1.533333
AM125.jpg 3.9
AF18.jpg 2.566667
AM268.jpg 3.016667
CM218.jpg 2.883333
CF275.jpg 2.966667
AM276.jpg 2.583333
AF1163.jpg 3.133333
CM630.jpg 2.633333
AF14.jpg 1.716667
AM177.jpg 2.366667
AM713.jpg 2.45
CM497.jpg 3.1
AM1386.jpg 3.266667
AM1992.jpg 4.083333
AM1636.jpg 4.3
AF463.jpg 2.316667
AF1513.jpg 3.716667
CM719.jpg 3.933333
AF107.jpg 1.883333
AF66.jpg 2
AF1088.jpg 3.866667
AF1795.jpg 3.3
CM699.jpg 3.766667
AF1378.jpg 2.7
AF920.jpg 2.6
AM6.jpg 4.25
AF128.jpg 2.866667
AF529.jpg 2.55
CM476.jpg 2.7
AM186.jpg 4.15
AF1965.jpg 1.75
AF625.jpg 3.1
AF1215.jpg 3.183333
AM1231.jpg 1.95
AM34.jpg 4.25
AM1037.jpg 2.266667
AF1340.jpg 3.9
CF517.jpg 1.916667
AF81.jpg 2.116667
AM894.jpg 2.716667
AM1690.jpg 4.433333
CF568.jpg 4.366667
AM1702.jpg 3.5
AM1169.jpg 2.25
CM661.jpg 3.9
CM647.jpg 4.466667
CF596.jpg 4.333333
CM410.jpg 2.816667
AF1045.jpg 3.816667
AF1558.jpg 3.7
AF949.jpg 2.783333
CF421.jpg 3.183333
AF595.jpg 2.283333
CM274.jpg 2.416667
CM700.jpg 4.5
AF1626.jpg 3.066667
AM1345.jpg 2.666667
AF201.jpg 2.95
AM271.jpg 1.933333
AM239.jpg 2.333333
CM455.jpg 2.75
CM742.jpg 4.283333
AF135.jpg 2.883333
CM297.jpg 2.7
AF1278.jpg 3.566667
AM1867.jpg 3.85
AF1061.jpg 2.766667
AM1541.jpg 2.65
AM993.jpg 2.283333
CM643.jpg 3.3
CF394.jpg 2.85
CF204.jpg 3.15
CM735.jpg 4.2
AF504.jpg 2.283333
AM776.jpg 2.6
AM1609.jpg 3.65
AM841.jpg 2.516667
CM269.jpg 2.5
AF498.jpg 2.65
AF1325.jpg 2.2
AF1097.jpg 2.466667
AF1915.jpg 3.466667
AM1406.jpg 2.683333
CM106.jpg 3.15
AM434.jpg 3.083333
CF729.jpg 3.716667
AF516.jpg 2.766667
AM1007.jpg 2.316667
AM557.jpg 2.716667
CM675.jpg 3.733333
CF111.jpg 2.983333
CF263.jpg 2.15
AM504.jpg 2.5
AF760.jpg 2.666667
CF15.jpg 3.933333
AM635.jpg 2.7
CM140.jpg 2.866667
AM595.jpg 2.95
AM1558.jpg 1.916667
CM466.jpg 2.633333
CM69.jpg 2.75
AF325.jpg 2.533333
CM509.jpg 2.7
CM617.jpg 2.783333
AF1003.jpg 2.866667
AF192.jpg 2.166667
CF210.jpg 2.8
AM1831.jpg 3.516667
AF740.jpg 2.6
AF199.jpg 2.683333
CF311.jpg 2.566667
AM26.jpg 1.966667
AF1523.jpg 3.8
AM623.jpg 2.783333
CF107.jpg 3.816667
CM262.jpg 3.083333
AM887.jpg 2.366667
CM481.jpg 2.9
AM1738.jpg 3.583333
CF531.jpg 2.716667
AM161.jpg 2.433333
AF27.jpg 2.666667
AM318.jpg 3.566667
AF1610.jpg 4.2
AF1746.jpg 3.566667
AM610.jpg 2.933333
AF718.jpg 2.65
AF441.jpg 3
AF691.jpg 2.483333
CM386.jpg 2.616667
AF1236.jpg 4.316667
AF1478.jpg 3.95
AM1394.jpg 2.583333
AF765.jpg 2.633333
AM1208.jpg 2.333333
AF284.jpg 3.116667
AF2000.jpg 3.55
AM848.jpg 2.516667
CM412.jpg 3.233333
AF1931.jpg 1.866667
CF696.jpg 3.066667
AF387.jpg 2.283333
AF1800.jpg 3.483333
AF164.jpg 3.083333
CF175.jpg 2.7
AF984.jpg 3.716667
CM660.jpg 3.383333
CM159.jpg 2.3
CM437.jpg 2.6
AF675.jpg 4.016667
AF1603.jpg 3.95
AM1354.jpg 2
CF730.jpg 3.716667
AM1416.jpg 2.8
AF756.jpg 1.316667
AM1869.jpg 3.116667
AM535.jpg 2.2
AM223.jpg 2.466667
CM64.jpg 2.483333
AF1941.jpg 3.133333
AF1959.jpg 1.033333
AM1482.jpg 2.166667
CM99.jpg 2.666667
AM1998.jpg 3.25
AM780.jpg 2.8
AM243.jpg 2.6
AM842.jpg 2.9
AM1097.jpg 2.216667
AF1682.jpg 3.883333
CF419.jpg 2.35
CM467.jpg 3.283333
AF8.jpg 2.75
AF833.jpg 3.2
AM17.jpg 3.266667
AM767.jpg 2.633333
AF3.jpg 3.183333
AF1990.jpg 4.166667
CM45.jpg 2.65
AM715.jpg 2.616667
CM587.jpg 1.716667
AM44.jpg 4.2
AF1552.jpg 3.5
AF1434.jpg 3.616667
AF1920.jpg 3.5
CF646.jpg 3.883333
AF1993.jpg 3.9
CF416.jpg 2.416667
AM952.jpg 2.266667
AM1108.jpg 3.033333
AF770.jpg 3.566667
AM996.jpg 2.05
AM1389.jpg 2.766667
AF1992.jpg 3.833333
CM727.jpg 4.1
AM1861.jpg 2.583333
AM719.jpg 2.966667
CM75.jpg 2.5
CF401.jpg 2.683333
CM362.jpg 2.6
AM1873.jpg 2.9
AM561.jpg 2.833333
AF1745.jpg 2.966667
CF354.jpg 2.45
CM569.jpg 3
AF670.jpg 3.05
AM978.jpg 2.666667
AF1525.jpg 3.75
AM625.jpg 3.05
AM1036.jpg 1.983333
CM121.jpg 2.466667
AF1848.jpg 3.466667
AM94.jpg 3.3
CM693.jpg 3.833333
AM860.jpg 2.833333
CM168.jpg 2.6
AM65.jpg 3.083333
AF488.jpg 3.3
AF1162.jpg 4.1
AF697.jpg 3.416667
AF72.jpg 2.316667
AF554.jpg 3.416667
CM228.jpg 2.883333
AM115.jpg 1.9
AM642.jpg 2.916667
AF71.jpg 2.7
CF579.jpg 3.666667
AF1416.jpg 3.383333
AM1964.jpg 4.4
AM385.jpg 2.45
CF642.jpg 4.216667
AM32.jpg 3.683333
AF819.jpg 2.966667
AM1463.jpg 2.183333
AF373.jpg 2.55
AM1271.jpg 2.45
AF1517.jpg 3.433333
AF700.jpg 1.85
AM579.jpg 2.633333
AM1343.jpg 2.5
AF214.jpg 2.683333
AM544.jpg 3.066667
AF228.jpg 2.433333
AF1074.jpg 3.116667
AM1470.jpg 3.6
AF972.jpg 4.366667
AM1087.jpg 2
AF438.jpg 2.7
AM1510.jpg 2.7
CM281.jpg 3.133333
AF1506.jpg 3.55
CM550.jpg 2.35
AF104.jpg 2.833333
AF1798.jpg 3.466667
CF542.jpg 2.9
CF237.jpg 3.183333
AM1732.jpg 3.966667
CF73.jpg 2.4
AM975.jpg 2.716667
AM138.jpg 3.233333
CF603.jpg 4.35
AF1436.jpg 2.933333
AM794.jpg 2.55
CF694.jpg 3.483333
AM1586.jpg 3.466667
CM337.jpg 3.183333
AF69.jpg 2.783333
AF1062.jpg 4.183333
CM101.jpg 4.283333
AF546.jpg 1.883333
CF302.jpg 2.7
AF110.jpg 3.25
AF1248.jpg 3.216667
AM137.jpg 4.25
AM455.jpg 3.433333
CM536.jpg 2.233333
AM905.jpg 2.883333
AF377.jpg 2.116667
AF88.jpg 2.4
AF423.jpg 2.95
AF1555.jpg 3.166667
AF1940.jpg 2.65
AM241.jpg 3.6
AM1489.jpg 2.25
AF1322.jpg 2.916667
AF1690.jpg 3.683333
AM1844.jpg 2.733333
CM73.jpg 3.733333
CF80.jpg 2.8
AF661.jpg 2.383333
AM316.jpg 2.683333
AF44.jpg 2.783333
CF131.jpg 3.266667
AM1362.jpg 2.616667
CM542.jpg 2.55
AF793.jpg 2.85
AF443.jpg 2
AM445.jpg 2.433333
AF482.jpg 2.733333
AM1522.jpg 2.15
AF372.jpg 2.633333
AF976.jpg 4.316667
AM1041.jpg 3.3
AF1998.jpg 2.733333
CF750.jpg 3.6
AF804.jpg 2.833333
CM189.jpg 2.6
CM549.jpg 2.833333
AM1421.jpg 2.85
AF1907.jpg 2.966667
CM746.jpg 4.316667
AF958.jpg 3.05
AF186.jpg 2.183333
AM1403.jpg 2.816667
AM1916.jpg 2.75
CM484.jpg 2.633333
AF41.jpg 4.25
AM833.jpg 2.266667
AF803.jpg 2.8
CM97.jpg 3.05
AM270.jpg 2.733333
AM1451.jpg 2.383333
CF191.jpg 2.25
CF17.jpg 3.95
CM534.jpg 3.4
AM646.jpg 2.166667
AM1862.jpg 3.966667
CM553.jpg 2.7
CF471.jpg 2.683333
CF647.jpg 4.166667
AF1731.jpg 3.45
AF669.jpg 3.183333
AF1165.jpg 3.066667
CF506.jpg 3.083333
AM1215.jpg 2.3
AM792.jpg 2.1
AM107.jpg 2.983333
AF1463.jpg 2.933333
AF1134.jpg 3.333333
AM859.jpg 2.866667
CF594.jpg 3.1
AF980.jpg 3.933333
CF265.jpg 2.266667
AM977.jpg 1.833333
CM419.jpg 2.483333
CM143.jpg 3.266667
AF182.jpg 2.316667
CM436.jpg 3.35
CF377.jpg 3.216667
AF238.jpg 2.683333
AF587.jpg 1.766667
AF553.jpg 2.95
AM22.jpg 4.7
AM714.jpg 2.866667
CM377.jpg 2.6
AM816.jpg 2.45
CF504.jpg 2.483333
CM174.jpg 3.6
AM871.jpg 2.3
AM1486.jpg 2.583333
AM1050.jpg 3.033333
AM1384.jpg 2.466667
AM1917.jpg 2.466667
CM15.jpg 2.683333
AM425.jpg 2.7
AM377.jpg 2.666667
AF654.jpg 2.516667
AM838.jpg 1.916667
AM1895.jpg 4.05
AM600.jpg 2.4
CM741.jpg 3.033333
CF313.jpg 2.116667
AM1263.jpg 2.466667
CM293.jpg 2.433333
AM281.jpg 2.25
AM296.jpg 1.95
AM1359.jpg 2.4
AM252.jpg 2.233333
AM1710.jpg 4.066667
CM570.jpg 3.05
AF824.jpg 2.283333
AM1688.jpg 4.083333
CF67.jpg 2.716667
AM1139.jpg 2.35
CF720.jpg 3.233333
CM94.jpg 2.683333
AM43.jpg 2.65
AM935.jpg 2.016667
CM329.jpg 2.466667
CF288.jpg 3.083333
AF1819.jpg 2.883333
AF564.jpg 2.983333
AF1059.jpg 3.033333
AF942.jpg 4.083333
AM1058.jpg 2.716667
CF130.jpg 2.966667
AF813.jpg 3.133333
AM661.jpg 2.416667
AF1867.jpg 4.016667
AF1488.jpg 3.85
AF903.jpg 3.066667
AM1159.jpg 2.7
AF696.jpg 2.316667
AF1575.jpg 3.066667
CM668.jpg 3.883333
AM1741.jpg 3.766667
AM728.jpg 2.7
AM834.jpg 2.766667
AF46.jpg 2.2
AM757.jpg 3.016667
AF136.jpg 2.316667
AF1645.jpg 3.333333
AF864.jpg 2.666667
CM439.jpg 3.25
AM328.jpg 2.716667
AF1702.jpg 2.316667
AM855.jpg 2.8
AM1715.jpg 3.15
CF476.jpg 2.833333
AF1604.jpg 3.7
AM1053.jpg 2.783333
AF826.jpg 2.8
AF861.jpg 3.15
CF657.jpg 3.8
AM1219.jpg 3.15
AM8.jpg 4.35
AF1621.jpg 3.55
AM1713.jpg 3.05
AM315.jpg 3
AM1686.jpg 3.583333
CM656.jpg 4.283333
CM77.jpg 4.366667
AF1114.jpg 2.966667
AF181.jpg 2.9
AF346.jpg 2.4
CF74.jpg 2.316667
CM105.jpg 2.666667
AF923.jpg 2.766667
AM899.jpg 2.666667
CF477.jpg 1.866667
AM1625.jpg 3.383333
CM309.jpg 4.433333
AM1568.jpg 4.033333
AM1983.jpg 3.6
CM271.jpg 2.666667
AM1307.jpg 2.6
AF1442.jpg 3.683333
AF1855.jpg 3.383333
AM1100.jpg 2.15
AM1372.jpg 2.483333
AF589.jpg 2.583333
CM151.jpg 2.183333
AM1661.jpg 4.15
AM1016.jpg 1.816667
AM1189.jpg 2.433333
AM961.jpg 2.916667
AF1094.jpg 4.066667
AM537.jpg 2.65
AM111.jpg 1.25
AM929.jpg 2.416667
AF592.jpg 4.533333
CM710.jpg 4.433333
CF648.jpg 4.65
CF256.jpg 2.333333
AF1543.jpg 3.9
AM850.jpg 2.516667
CF585.jpg 3.616667
AF1743.jpg 2.616667
AM1461.jpg 3.65
CM364.jpg 3.6
AM1647.jpg 3.3
AF737.jpg 2.666667
CF232.jpg 3.633333
AM1035.jpg 2.066667
AF782.jpg 2.816667
AM989.jpg 2.516667
CM263.jpg 3.066667
AM922.jpg 2.633333
AF1037.jpg 2
CF728.jpg 4.316667
AF928.jpg 4.116667
AM573.jpg 2.133333
CM452.jpg 2.35
AM849.jpg 2.416667
AF1051.jpg 2.7
AM1422.jpg 2.816667
CM185.jpg 2.716667
AM770.jpg 2.166667
AM565.jpg 2.35
AF598.jpg 2.35
AF1582.jpg 4.216667
AF1979.jpg 2.566667
AF1318.jpg 4.116667
AM1782.jpg 3
AM520.jpg 2.75
AM1376.jpg 2.6
CF711.jpg 3.666667
AM430.jpg 2.883333
AM510.jpg 2.7
AF1923.jpg 3
AM1877.jpg 4.033333
CM500.jpg 3.583333
AF1264.jpg 2.9
AM1326.jpg 2.633333
CF624.jpg 3.9
CM678.jpg 4
AM1136.jpg 2.516667
AF361.jpg 2.933333
AF416.jpg 2.533333
AF1185.jpg 2.616667
AF134.jpg 2.316667
AF26.jpg 2.25
AF492.jpg 4.166667
CF495.jpg 2.933333
AF428.jpg 2.766667
AF1469.jpg 4.033333
CF567.jpg 4.433333
AM1506.jpg 2.633333
AF1321.jpg 1.816667
CM300.jpg 2.6
AM764.jpg 3.083333
AF253.jpg 2.7
CF626.jpg 3.316667
CF378.jpg 2.15
CF284.jpg 3.95
CM137.jpg 2.45
AF1288.jpg 3.283333
CM209.jpg 2.75
AF521.jpg 2.883333
CM689.jpg 4.433333
CF44.jpg 2.633333
CM213.jpg 3.05
AM700.jpg 2.366667
CF65.jpg 1.333333
CM631.jpg 2.7
AM1358.jpg 2.85
AM1918.jpg 3.133333
AF1408.jpg 3.65
AF998.jpg 3.35
CF389.jpg 2.066667
AM798.jpg 3.066667
AF502.jpg 2.616667
CF555.jpg 4.1
AM803.jpg 2.766667
AM1441.jpg 2.25
AM551.jpg 2.016667
CF528.jpg 2.616667
AM1093.jpg 3.033333
CF529.jpg 2.933333
AF1639.jpg 3.366667
AM543.jpg 2.75
AM1559.jpg 2.716667
AM1294.jpg 2.433333
AF487.jpg 2.583333
AF225.jpg 3.716667
CF375.jpg 2.566667
AM818.jpg 2.783333
AM1446.jpg 2.733333
AM1817.jpg 3.116667
AF1420.jpg 3.433333
AM314.jpg 2.883333
CF289.jpg 3.166667
AM1103.jpg 3.116667
AF878.jpg 2.75
AF1023.jpg 3.4
AF1880.jpg 2.466667
AM1458.jpg 1.666667
AF85.jpg 2.783333
CF717.jpg 3.433333
CF373.jpg 2.433333
CF181.jpg 2.783333
AF1439.jpg 3.85
AF1064.jpg 3.883333
AF296.jpg 2.816667
AM1900.jpg 3.383333
CF548.jpg 4.416667
AF93.jpg 2.533333
AF542.jpg 3.116667
AM1253.jpg 2.483333
AF1454.jpg 2.733333
AF1991.jpg 2.016667
AM505.jpg 1.65
AF1267.jpg 3.433333
AM1095.jpg 4.15
AF1031.jpg 4.033333
AM1112.jpg 2.75
AF367.jpg 2.6
AF29.jpg 3.05
AF178.jpg 2.583333
AM920.jpg 2.233333
AF1230.jpg 2.016667
AM1949.jpg 3.416667
AM1956.jpg 3.933333
CF5.jpg 3.883333
AM1420.jpg 2.85
AM129.jpg 4.3
AF461.jpg 2.35
AM858.jpg 2.833333
AM1515.jpg 2.633333
AM511.jpg 2.683333
AF1837.jpg 4.466667
AM1092.jpg 3.45
CF745.jpg 3.45
AF639.jpg 4.183333
AM203.jpg 2.766667
AM1488.jpg 2.783333
CM234.jpg 4.333333
CM221.jpg 3.05
CM426.jpg 3.05
AM1448.jpg 2.5
AF1797.jpg 3.166667
AM862.jpg 2.483333
AM1217.jpg 2.9
AF1360.jpg 3.883333
CF247.jpg 2.5
AM1886.jpg 3.066667
AM185.jpg 2.4
AF9.jpg 2.15
AF473.jpg 2.65
AF1593.jpg 4.15
AM1674.jpg 4.233333
AM194.jpg 1.9
AF1659.jpg 3.566667
AF745.jpg 2.816667
AM1120.jpg 2.516667
AM564.jpg 2.716667
AM1137.jpg 3
AM1062.jpg 2.683333
AF1335.jpg 4.066667
AF1577.jpg 3.4
AF1455.jpg 3.033333
CM22.jpg 4.166667
AF1854.jpg 3.216667
AM541.jpg 2.683333
AM487.jpg 2.183333
AM674.jpg 2.433333
AM1610.jpg 3.3
AM1334.jpg 2.1
AM869.jpg 2.15
AM979.jpg 2.3
AF710.jpg 1.933333
AM1942.jpg 3.366667
AF1244.jpg 3.916667
AM1762.jpg 2.2
AF501.jpg 3.833333
AF169.jpg 2.333333
AM432.jpg 2.55
AM516.jpg 3.1
AM342.jpg 2.75
CM30.jpg 4.166667
CM205.jpg 2.216667
AM1950.jpg 3.216667
AM1276.jpg 2.166667
AF92.jpg 2.533333
AF1821.jpg 3.483333
AM892.jpg 2.35
AF683.jpg 2.866667
AM1194.jpg 2.733333
AM1604.jpg 3.966667
CF37.jpg 2.516667
AF1916.jpg 3.166667
AF995.jpg 3.016667
AM378.jpg 2.5
AF62.jpg 2.633333
CM27.jpg 3.45
AM191.jpg 1.816667
AM1128.jpg 2.633333
AF326.jpg 2.833333
CM343.jpg 2.616667
CF96.jpg 2.6
AF1131.jpg 3.066667
AF1211.jpg 4.166667
AF366.jpg 2.766667
CM483.jpg 3.766667
CF335.jpg 3.333333
AF145.jpg 2.9
AF1770.jpg 4.116667
AF67.jpg 3.083333
AM1398.jpg 2.666667
AM1990.jpg 3.783333
AM332.jpg 2.666667
CF602.jpg 4.366667
CM122.jpg 2.516667
AF353.jpg 2.383333
CF63.jpg 2.366667
AM1264.jpg 3
CM133.jpg 2.833333
CF348.jpg 1.75
CF405.jpg 3.383333
CF231.jpg 2.7
AF1483.jpg 2.516667
CF467.jpg 2.916667
AM1185.jpg 2.833333
AM2.jpg 3.6
AF247.jpg 2.866667
CM195.jpg 2.283333
AM830.jpg 2.483333
AM1492.jpg 2.783333
AM737.jpg 2.916667
CF183.jpg 2.85
AM294.jpg 2.65
AM566.jpg 2.15
CF347.jpg 2.983333
CF9.jpg 3.533333
AF1669.jpg 4
AM1528.jpg 2
AF1832.jpg 4.083333
CM526.jpg 2.866667
AF1676.jpg 4.416667
AM761.jpg 2.933333
CM556.jpg 2.616667
AF322.jpg 1.816667
AF329.jpg 3.133333
AF1829.jpg 2.85
AM1577.jpg 2.65
CF365.jpg 3.6
CM360.jpg 3.433333
AF1859.jpg 1.85
CF145.jpg 2.05
AF1876.jpg 2.85
AM132.jpg 2.65
CF359.jpg 2.766667
AF1457.jpg 3.966667
AF342.jpg 2.683333
AM480.jpg 2.85
AF1576.jpg 3.35
AM519.jpg 2.216667
AM554.jpg 2.6
AM619.jpg 2.15
AF1192.jpg 2.983333
AM1527.jpg 2.166667
AM708.jpg 1.966667
CM541.jpg 2.566667
AF43.jpg 2.166667
AF1127.jpg 2.866667
CM527.jpg 2.366667
CF554.jpg 4.133333
AM677.jpg 2.6
AF129.jpg 3.1
AM1685.jpg 4.1
AF1788.jpg 4.083333
AF749.jpg 2.566667
CM713.jpg 4.233333
CM749.jpg 4.283333
AF948.jpg 2.766667
CM374.jpg 2.566667
AM1935.jpg 4.316667
CF460.jpg 2.55
CF607.jpg 3.65
AM1560.jpg 2.833333
CF551.jpg 4.45
CM594.jpg 3.933333
AF624.jpg 2.7
AM1232.jpg 2.45
AF874.jpg 2.766667
AM323.jpg 2.533333
AM285.jpg 2.883333
AF859.jpg 3.116667
AM1773.jpg 4.383333
CF144.jpg 2.583333
CM74.jpg 3.083333
AF1725.jpg 3.366667
AM596.jpg 2.7
AM1385.jpg 2.516667
CM596.jpg 2.1
AF645.jpg 2.783333
AM607.jpg 2
CF252.jpg 3.5
CF573.jpg 4.266667
AM1537.jpg 2.5
AF1139.jpg 2.883333
AF1856.jpg 4.2
AM1750.jpg 3.666667
AM293.jpg 2.15
AF396.jpg 2
AM1677.jpg 4.083333
CM203.jpg 2.6
AM405.jpg 2.966667
AM765.jpg 2.716667
AF1564.jpg 3.983333
CF164.jpg 2.516667
CF352.jpg 2.1
AM1963.jpg 4.416667
CM670.jpg 4.05
CF109.jpg 2.316667
AM1008.jpg 2.483333
AM275.jpg 2.55
AF1200.jpg 3.7
AM265.jpg 2.316667
AM1791.jpg 2.25
AM158.jpg 2.583333
CM34.jpg 1.933333
AM465.jpg 1.716667
CM697.jpg 4.016667
CM685.jpg 3.25
AF1207.jpg 4.05
AM1594.jpg 3.5
AF1153.jpg 3.266667
CM575.jpg 2.666667
AF1663.jpg 3.55
AM1669.jpg 3.183333
AF155.jpg 2.55
AF1835.jpg 3.033333
AM1922.jpg 2.366667
AF1889.jpg 3.833333
AM1639.jpg 4.3
CM421.jpg 2.733333
CM505.jpg 2.083333
AM1687.jpg 3.983333
AM116.jpg 3.916667
AF1174.jpg 4.5
AM1813.jpg 3.733333
CF433.jpg 2.233333
AF781.jpg 2.516667
AF1311.jpg 4.033333
AF1707.jpg 3.1
AF622.jpg 2.2
CM515.jpg 2.616667
CF83.jpg 2.9
AM1450.jpg 2.666667
AF1601.jpg 4.483333
AF969.jpg 3.783333
AF1179.jpg 3.933333
CM489.jpg 2.75
AF1851.jpg 2.833333
AM559.jpg 2.616667
AF1598.jpg 3.583333
AM1318.jpg 2.65
AM883.jpg 2.283333
AM1496.jpg 2.35
AM333.jpg 2.6
AF301.jpg 2.516667
CF126.jpg 2.816667
CM450.jpg 3.733333
CF434.jpg 2.983333
CM288.jpg 2.716667
AM1876.jpg 3.1
CF503.jpg 2.766667
AF1698.jpg 3.25
AM546.jpg 2.683333
AF860.jpg 3.8
AM286.jpg 1.916667
AM867.jpg 3.516667
CF314.jpg 1.916667
AM688.jpg 1.933333
AF246.jpg 3.2
AF290.jpg 2.466667
AF615.jpg 2.666667
CM230.jpg 2.383333
AF1067.jpg 2.583333
CF546.jpg 3.6
CM424.jpg 2.983333
CF177.jpg 2.883333
CF344.jpg 3.316667
CF328.jpg 2.916667
AF1753.jpg 3.266667
CM612.jpg 2.433333
AF1341.jpg 2.233333
AM1919.jpg 2.866667
CF134.jpg 2.616667
AF34.jpg 2.233333
AF886.jpg 2.25
AM1977.jpg 4.083333
AM207.jpg 2.416667
AM865.jpg 2.716667
AF808.jpg 2.1
AM1746.jpg 4.216667
AM1504.jpg 2.6
CM567.jpg 2.866667
AM446.jpg 2.85
AM1592.jpg 3.8
AM1780.jpg 3.133333
AF731.jpg 3.966667
CM357.jpg 2.8
AF1586.jpg 3.766667
AF1700.jpg 3.05
AM500.jpg 2.55
AM1440.jpg 2.366667
AM1344.jpg 2.7
AF1422.jpg 3.966667
AF306.jpg 2.933333
CM308.jpg 2.666667
AM630.jpg 3.05
AM992.jpg 2.683333
AM831.jpg 2.883333
CF574.jpg 3.9
AM1258.jpg 2.7
AM662.jpg 2.6
CF743.jpg 2.916667
AF437.jpg 3.083333
AM723.jpg 2.25
AM1045.jpg 2
AM339.jpg 2.416667
AF933.jpg 3.983333
AF985.jpg 1.6
AF1647.jpg 3.633333
CF306.jpg 2.666667
AM1438.jpg 2.533333
AF1550.jpg 3.383333
AF916.jpg 3.033333
AM645.jpg 2.9
AM361.jpg 2.666667
CF473.jpg 3.1
CF414.jpg 2.333333
CF338.jpg 2.783333
AM244.jpg 2.3
CF236.jpg 2.116667
AM272.jpg 2.483333
AF1836.jpg 3.183333
AM1776.jpg 3.866667
AM1452.jpg 2.483333
CF397.jpg 2.85
AM530.jpg 2.6
AM754.jpg 2.65
CF182.jpg 2.666667
AF1605.jpg 3.466667
AM1804.jpg 2.616667
CF72.jpg 2.416667
AF1195.jpg 3.433333
CM132.jpg 2.683333
CM373.jpg 3
CM698.jpg 3
AM283.jpg 2.733333
AM802.jpg 2.85
AF663.jpg 2.95
AM1621.jpg 2.383333
AM1753.jpg 3.45
AF1117.jpg 1.966667
CF519.jpg 2.633333
AF1237.jpg 3.366667
AM548.jpg 2.9
AM1079.jpg 2.333333
AF794.jpg 3.233333
AM1614.jpg 4.116667
AF1699.jpg 3.4
AM1579.jpg 4.283333
AF300.jpg 4.183333
AF331.jpg 2.083333
AM1599.jpg 3.666667
AF1219.jpg 3.2
AM345.jpg 2.25
AM302.jpg 2.316667
AM1868.jpg 4.233333
AF215.jpg 2.533333
AF24.jpg 2.433333
AF1999.jpg 2.733333
AM304.jpg 4.183333
CF678.jpg 3.9
AF1609.jpg 3.516667
AM1082.jpg 2.133333
AM1811.jpg 3.433333
AF1178.jpg 3.983333
AM655.jpg 2.85
AM404.jpg 2.633333
AM1711.jpg 3.216667
AM1743.jpg 3.283333
AM583.jpg 2.833333
CF198.jpg 2.35
CM396.jpg 2.633333
AF690.jpg 3.55
AM772.jpg 2.25
CF468.jpg 2.65
CM433.jpg 2.733333
CF108.jpg 2.1
AF1878.jpg 3.983333
AM1814.jpg 2.433333
CF26.jpg 3.3
CF212.jpg 2.4
AM1588.jpg 3.916667
CM562.jpg 3.683333
AF534.jpg 2.433333
AF292.jpg 2.783333
CM387.jpg 2.6
CF370.jpg 3.35
CM608.jpg 3.333333
AM1323.jpg 2.95
AM1493.jpg 2.6
AF47.jpg 2.883333
CF185.jpg 2.766667
CF589.jpg 4.316667
CF125.jpg 3.766667
AF189.jpg 2.416667
AF1348.jpg 3.916667
AF316.jpg 2.433333
AM1241.jpg 2.3
AF445.jpg 2.166667
AF349.jpg 2.566667
AF1689.jpg 3.833333
CF168.jpg 2.9
AM1889.jpg 3.6
AF1930.jpg 3.716667
AM717.jpg 2.133333
AF1732.jpg 4.2
CF604.jpg 3.583333
AF304.jpg 1.933333
AM1114.jpg 3.316667
CM40.jpg 2.983333
AF1617.jpg 3.616667
CM554.jpg 2.9
CM673.jpg 4.216667
CF422.jpg 2.516667
AM729.jpg 2.516667
AF1281.jpg 3.016667
AM38.jpg 3.1
AM213.jpg 2.766667
CF571.jpg 3.633333
AF1305.jpg 4.083333
CF408.jpg 3.1
AM1106.jpg 2.116667
AF1458.jpg 3.833333
AF785.jpg 2.666667
AM169.jpg 1.766667
AF1871.jpg 3.65
AM1847.jpg 3.7
CF239.jpg 2.816667
AF1612.jpg 3.866667
AF881.jpg 4.016667
AM672.jpg 3.033333
AF1055.jpg 3.45
CM166.jpg 2.366667
CF442.jpg 2.55
CM417.jpg 2.5
AM1779.jpg 3.716667
CM220.jpg 2.85
CF640.jpg 4.65
CM723.jpg 3.2
CM229.jpg 2.6
AF1159.jpg 3.983333
AF946.jpg 3.516667
AM1148.jpg 2.6
AF148.jpg 1.916667
CM579.jpg 2.733333
AM1125.jpg 2.016667
AF899.jpg 2.616667
CM714.jpg 4.083333
AM322.jpg 4.233333
CF698.jpg 3.85
CM464.jpg 2.1
AM469.jpg 2.833333
CM629.jpg 2.266667
AF105.jpg 4.033333
CM588.jpg 2.483333
AM1562.jpg 3.866667
CM215.jpg 2.7
AF1588.jpg 3.933333
CM705.jpg 4.15
AM75.jpg 3.866667
AM951.jpg 2.2
AF1681.jpg 2.716667
AF203.jpg 3.833333
AF1758.jpg 2.883333
CM465.jpg 2.9
CM342.jpg 2.45
AF295.jpg 2.133333
AM141.jpg 3.766667
AM258.jpg 2.25
AF1365.jpg 4.483333
AM1572.jpg 4.3
AM15.jpg 3.683333
CF43.jpg 2.283333
AF1352.jpg 3.466667
AM387.jpg 2.1
CF723.jpg 3.333333
AM1025.jpg 2.533333
AM727.jpg 3.05
AM324.jpg 2.683333
AF402.jpg 3.466667
AM1538.jpg 2.816667
AF792.jpg 2.9
AF1011.jpg 3.1
AM199.jpg 3.883333
AF1450.jpg 2.766667
CM331.jpg 3
CF537.jpg 3.433333
CM621.jpg 2.983333
CF645.jpg 3.866667
AF1607.jpg 3.433333
AF1939.jpg 3.433333
AM1300.jpg 2.3
AM429.jpg 2.516667
AF78.jpg 2.65
AM866.jpg 2.95
CF665.jpg 3.583333
AM1246.jpg 2.566667
AF1533.jpg 4.116667
AM168.jpg 2.6
AF450.jpg 3.1
AM1801.jpg 4.45
AM1261.jpg 2.566667
AM1410.jpg 2.566667
AM1871.jpg 2.95
AF1886.jpg 2.8
AF1686.jpg 3.616667
CM462.jpg 3.016667
AF851.jpg 2.25
AM417.jpg 2.966667
AM889.jpg 2.1
CM320.jpg 2.833333
AM1432.jpg 2.733333
AM1747.jpg 2.95
AM379.jpg 2.2
AF425.jpg 2.466667
CM493.jpg 2.866667
AF1870.jpg 2.983333
AM1184.jpg 3.033333
AM743.jpg 2.816667
AF1688.jpg 4.266667
AF662.jpg 2.933333
CM290.jpg 2.616667
AF1766.jpg 4.066667
AM1179.jpg 2.733333
AF223.jpg 2.35
AF772.jpg 4.133333
AM369.jpg 2.8
AF266.jpg 2.4
AF1276.jpg 2.016667
AF968.jpg 2.3
AF251.jpg 2.7
AM1273.jpg 2.766667
CM454.jpg 2.433333
AF1372.jpg 3.133333
AF963.jpg 4.216667
CF469.jpg 2.266667
CF110.jpg 2.65
AM523.jpg 2.95
AF391.jpg 1.35
CM266.jpg 3.083333
AM526.jpg 2.75
CF731.jpg 3.7
AF732.jpg 2.733333
AF411.jpg 2.416667
CM694.jpg 4.2
AF1111.jpg 2.383333
AM1240.jpg 2.3
CF492.jpg 2.3
AM1295.jpg 2.233333
AF938.jpg 3.616667
CM486.jpg 2.666667
CM511.jpg 2.6
AF198.jpg 2.433333
AM1840.jpg 3.35
AM57.jpg 3.25
AM545.jpg 2.35
AM820.jpg 2.85
CM312.jpg 2.25
AM1088.jpg 2.3
AM785.jpg 2.85
AM1830.jpg 2.783333
CF56.jpg 2.383333
AF1919.jpg 4.016667
AF1895.jpg 3.8
AM1349.jpg 2.7
CM63.jpg 2.45
CF621.jpg 3.95
AF1947.jpg 3.466667
AM1826.jpg 2.8
CM487.jpg 2.483333
CF336.jpg 2.8
AF1108.jpg 1.866667
AM1111.jpg 2.216667
CF301.jpg 3.766667
AF858.jpg 3.95
AF218.jpg 2.25
CM576.jpg 2.8
CM236.jpg 2.4
CF407.jpg 2.616667
AF1386.jpg 2.933333
CM313.jpg 2.6
AF818.jpg 3.05
AM1242.jpg 1.933333
AF897.jpg 4.383333
CM25.jpg 2.95
AF1409.jpg 3.5
CM160.jpg 4.5
AF1713.jpg 3.8
AM777.jpg 2.516667
CM603.jpg 2.966667
AM953.jpg 2.95
AF1087.jpg 2.766667
CF273.jpg 2.783333
AF379.jpg 2.5
CF240.jpg 2.85
AM1979.jpg 3.183333
AM945.jpg 2.183333
AM173.jpg 1.716667
CF245.jpg 2.066667
CM289.jpg 2.716667
AM1681.jpg 4.1
CF50.jpg 4.45
CM648.jpg 4.216667
AM460.jpg 3.25
CM559.jpg 2.35
AM146.jpg 2.966667
AF900.jpg 2.9
AF249.jpg 2.95
AM896.jpg 2.3
AF52.jpg 2.133333
AF1377.jpg 3.666667
AF1817.jpg 3.15
CF437.jpg 2.883333
AF954.jpg 4
AF1833.jpg 3.55
AF1235.jpg 2.533333
AM813.jpg 3.8
AF1260.jpg 3.716667
AM1629.jpg 4.333333
CM38.jpg 3.6
AM1172.jpg 2.266667
AM1127.jpg 2.783333
CM135.jpg 2.65
AM613.jpg 2.666667
AF748.jpg 2.75
AF1691.jpg 3.3
AF1963.jpg 2.666667
CM438.jpg 2.566667
AM127.jpg 3.9
CF142.jpg 2.366667
AF937.jpg 2.85
AM1364.jpg 2.3
CM181.jpg 2.966667
CF332.jpg 2.75
AF1368.jpg 3.083333
AM1785.jpg 3
AF1080.jpg 3.916667
CM716.jpg 4.133333
AM1892.jpg 4.133333
CM107.jpg 3.083333
AM851.jpg 2.45
AF842.jpg 2.683333
AF1259.jpg 2.666667
CF738.jpg 4
AM341.jpg 2.25
AF1844.jpg 4.55
AM1475.jpg 2.833333
AF303.jpg 2.9
AF1516.jpg 3.466667
AM705.jpg 2.85
AF122.jpg 2.266667
AF261.jpg 2.133333
AM1445.jpg 2.666667
AF271.jpg 3.233333
AF1973.jpg 4.75
AF535.jpg 2.583333
CF499.jpg 2.366667
AM245.jpg 4.516667
AF1312.jpg 4
AF917.jpg 1.433333
CF106.jpg 2.9
CF170.jpg 2.3
AF699.jpg 3.266667
CM19.jpg 3.633333
CF241.jpg 2.4
AM1071.jpg 2.116667
AM1615.jpg 3.05
CF281.jpg 1.933333
AM779.jpg 2.4
AF511.jpg 2.766667
AF921.jpg 4.1
CF427.jpg 2.75
AM1322.jpg 2.2
AF1852.jpg 3.833333
AM1205.jpg 2.583333
CM260.jpg 3.316667
AF57.jpg 2.216667
AF1674.jpg 4.066667
AM1284.jpg 2.366667
CM712.jpg 3.833333
AM676.jpg 2.8
AM1825.jpg 2.35
AF1118.jpg 1.833333
AM439.jpg 2.7
AF583.jpg 2.5
AM1993.jpg 2.916667
AF1680.jpg 3.683333
AM1706.jpg 2.6
AM1879.jpg 3.766667
AM1999.jpg 3.416667
AM948.jpg 2.916667
AM162.jpg 4.5
AF934.jpg 3.866667
CF396.jpg 3.466667
AM233.jpg 2.8
AF746.jpg 3.266667
CF544.jpg 3.583333
CF659.jpg 4.45
AF1677.jpg 3.25
AM1141.jpg 3.283333
CF402.jpg 2.266667
AM1063.jpg 2.016667
AM85.jpg 1.95
CF438.jpg 2.216667
AF719.jpg 2.233333
AF347.jpg 2.716667
CM706.jpg 3.75
AM1498.jpg 3.066667
CM595.jpg 2.916667
CF11.jpg 4.366667
AF356.jpg 3.1
CF361.jpg 2.75
CF139.jpg 2.316667
AM627.jpg 2.616667
CM696.jpg 3.833333
AM1947.jpg 2.9
CM606.jpg 3.316667
AM77.jpg 4.2
CM180.jpg 3.05
AF434.jpg 3
AM1524.jpg 2.816667
AF764.jpg 2.6
AF413.jpg 1.833333
CM432.jpg 2.633333
AM753.jpg 2.45
AM231.jpg 2.6
CM663.jpg 4.483333
AF799.jpg 3.116667
CF687.jpg 4.166667
AM852.jpg 2.45
AF1858.jpg 3.383333
CM674.jpg 3.866667
AF1240.jpg 2.716667
CF319.jpg 2.65
CM745.jpg 3.583333
AF1812.jpg 3.816667
AF1406.jpg 3.766667
AF1995.jpg 1.316667
AF1955.jpg 3.883333
CM747.jpg 3.85
AF63.jpg 1.783333
AM1383.jpg 2.35
AM1975.jpg 4.45
AM1951.jpg 2.95
AM1158.jpg 2.866667
AF369.jpg 3.15
AF1673.jpg 3.95
AM598.jpg 2.566667
CM114.jpg 2.683333
AF715.jpg 4.433333
AF121.jpg 2.383333
AF109.jpg 2.333333
AM937.jpg 2.716667
CM686.jpg 2.9
AM250.jpg 2.8
AF357.jpg 2.533333
AM1848.jpg 2.366667
AF1342.jpg 4.333333
AF1319.jpg 4.15
AM419.jpg 2.583333
AM224.jpg 2.683333
AM390.jpg 4.683333
CF324.jpg 2.383333
AF1459.jpg 4
AM267.jpg 4.033333
AM1974.jpg 3.616667
AF61.jpg 2.366667
AF629.jpg 2.866667
AM91.jpg 2.983333
CF740.jpg 4.133333
AM918.jpg 2.416667
AM401.jpg 2.466667
AF1362.jpg 4.016667
AM1726.jpg 3.566667
CM655.jpg 4.166667
CF613.jpg 4.45
CM245.jpg 2.783333
AM3.jpg 4.05
AF115.jpg 2.95
CM560.jpg 2.35
AM478.jpg 2.533333
CM26.jpg 2.283333
CF32.jpg 1.983333
CM292.jpg 2.916667
CF138.jpg 1.9
AF1414.jpg 3.733333
AF1175.jpg 4.333333
AM917.jpg 2.816667
AF671.jpg 2.6
AF283.jpg 3.066667
CM389.jpg 2.466667
AF877.jpg 3.95
AF850.jpg 3.616667
AM1646.jpg 3.983333
CM687.jpg 3.616667
AF1343.jpg 3.616667
AM1170.jpg 2.15
AM78.jpg 3.083333
AF1664.jpg 3.266667
AM1516.jpg 2.183333
AM1033.jpg 2
AF216.jpg 2.666667
AM1563.jpg 3
AF1838.jpg 3.516667
AM363.jpg 2.45
AF485.jpg 2.55
CF223.jpg 2.483333
AF1944.jpg 3.216667
AF868.jpg 2.233333
CM622.jpg 2.666667
CM498.jpg 2.45
AM1423.jpg 2.316667
AF957.jpg 3.016667
AF733.jpg 2.6
CM336.jpg 2.9
CM429.jpg 2.733333
CF40.jpg 3.383333
AM1469.jpg 3.866667
AF1983.jpg 3.883333
AM502.jpg 2.633333
AM317.jpg 2.55
AM1505.jpg 2.783333
AF1149.jpg 3.5
AF1933.jpg 3.116667
AF1554.jpg 4.233333
AF862.jpg 4.266667
AM1239.jpg 2.633333
AF640.jpg 2.6
AM967.jpg 3.133333
AM771.jpg 2.333333
AM39.jpg 3.683333
CF209.jpg 3.05
AF777.jpg 2.25
AF1828.jpg 4.083333
AF389.jpg 2.833333
AF494.jpg 2.3
AM1472.jpg 1.716667
AM680.jpg 2.433333
AF680.jpg 2.116667
AF1926.jpg 3.6
AM1997.jpg 4.433333
AM128.jpg 3.366667
AM1281.jpg 2.466667
AM484.jpg 2.833333
AF1653.jpg 2.616667
AM352.jpg 2.933333
AM695.jpg 2.683333
CF651.jpg 3.933333
CM503.jpg 3.116667
CM626.jpg 2.7
AM1931.jpg 3.833333
AM1666.jpg 3.95
AM1665.jpg 2.933333
AF527.jpg 3.133333
AM1104.jpg 1.983333
AF791.jpg 2.683333
CM193.jpg 2.783333
AF177.jpg 1.733333
CM341.jpg 2.566667
AF56.jpg 3.316667
CF455.jpg 4.016667
AF603.jpg 4.316667
AF422.jpg 2.366667
CM385.jpg 2.866667
AF609.jpg 2.466667
AM1882.jpg 2.85
CF444.jpg 2.266667
AF99.jpg 2.533333
CF160.jpg 2.416667
AM1905.jpg 3.283333
AM1214.jpg 2.833333
CM644.jpg 4.116667
AM35.jpg 3.15
AF493.jpg 2.8
AM1904.jpg 1.633333
CF609.jpg 4.7
AM795.jpg 1.983333
AM1392.jpg 2.433333
AF23.jpg 3.3
AF996.jpg 3.366667
AF929.jpg 3.8
AM7.jpg 3.25
AF442.jpg 2.633333
AM870.jpg 1.6
AM117.jpg 4.116667
AM391.jpg 2.916667
AM350.jpg 2.35
AM230.jpg 2.25
AF1184.jpg 2.333333
AF22.jpg 2.416667
AF1862.jpg 3.033333
AF1063.jpg 4.316667
AF994.jpg 3.666667
AF1083.jpg 4.4
AF1423.jpg 3.733333
AM1545.jpg 2.716667
CF4.jpg 4.066667
CM109.jpg 3.45
AF1536.jpg 3.7
AF83.jpg 2.683333
AF1157.jpg 3.016667
AM384.jpg 3.2
CM620.jpg 1.9
CF524.jpg 2.633333
CM394.jpg 2.75
AM931.jpg 2.75
CF294.jpg 2.666667
CM212.jpg 2.466667
AF222.jpg 2.583333
AM423.jpg 2.5
CM184.jpg 2.55
AF918.jpg 2.283333
CM81.jpg 2.733333
AM1377.jpg 2.216667
CF35.jpg 2.583333
AM641.jpg 2.6
AF1092.jpg 2.25
AM1411.jpg 2.7
AF291.jpg 2.266667
AM514.jpg 2.316667
AF74.jpg 2.183333
AF1749.jpg 3.166667
CF692.jpg 4.316667
AF767.jpg 2.766667
AF1896.jpg 3.15
AF197.jpg 1.95
AF1782.jpg 3.25
CM533.jpg 2.633333
AM282.jpg 1.666667
AF1671.jpg 3.5
AM1954.jpg 3.733333
CF173.jpg 2.633333
AF150.jpg 2.466667
AF232.jpg 1.983333
CF320.jpg 2.45
CM728.jpg 4.316667
AM63.jpg 4.15
AF184.jpg 3.2
AF816.jpg 2.9
AF556.jpg 2.583333
CM604.jpg 2.666667
CF392.jpg 3.183333
AF602.jpg 2.65
AM940.jpg 2.5
AF307.jpg 2.466667
AF1143.jpg 1.983333
AM1552.jpg 2.583333
AM1765.jpg 4.3
AF1528.jpg 3.383333
CF58.jpg 2.283333
AM67.jpg 3.45
AF1056.jpg 4.216667
AF1964.jpg 4.216667
AF1452.jpg 3.016667
AF763.jpg 2.6
AF1078.jpg 3.483333
AM433.jpg 2.2
AF1486.jpg 4.033333
AM1894.jpg 4.433333
CF270.jpg 3.333333
AF273.jpg 2.533333
AF1024.jpg 3.366667
AM330.jpg 2.783333
AM801.jpg 2.816667
AM1806.jpg 2.783333
AF1121.jpg 1.966667
AF208.jpg 2.733333
AF727.jpg 3.383333
AM568.jpg 2.35
AM1959.jpg 3.75
AM1467.jpg 2.966667
AF716.jpg 1.5
CF464.jpg 2.116667
CF598.jpg 4.233333
AM1287.jpg 2.383333
CM658.jpg 3.45
AF380.jpg 2.9
AM1712.jpg 4.333333
AF1860.jpg 3.216667
AF672.jpg 2.466667
AM1023.jpg 2.483333
AF707.jpg 2.066667
AF1072.jpg 3.233333
AM1180.jpg 2.75
AF1704.jpg 2.166667
AM988.jpg 2.766667
AF1151.jpg 2.166667
CF342.jpg 3.05
CM531.jpg 3.333333
AF568.jpg 2.416667
AM538.jpg 2.75
AF95.jpg 2.533333
AM618.jpg 2.716667
AM577.jpg 2.783333
CM516.jpg 2.866667
CF533.jpg 2.516667
AF17.jpg 2.933333
AF212.jpg 2.8
CF153.jpg 3.55
AF1504.jpg 3.333333
CM650.jpg 4.45
AM1617.jpg 3.7
AM447.jpg 2.416667
AF631.jpg 3.4
AF385.jpg 2.483333
CM563.jpg 2.9
AF915.jpg 3.166667
AF1.jpg 2.333333
AM202.jpg 2.466667
AF319.jpg 3.016667
CF581.jpg 4.45
AF1592.jpg 4.466667
CM459.jpg 2.75
AF1791.jpg 3.9
AF1317.jpg 4.033333
AF33.jpg 2.7
CF424.jpg 3.15
CM418.jpg 2.333333
AF630.jpg 3.783333
AM1351.jpg 2.75
AF1471.jpg 3.266667
AF1119.jpg 2.7
AM1575.jpg 4.183333
CF360.jpg 2.3
AM1815.jpg 2.533333
AM1144.jpg 2.233333
AF1268.jpg 4.05
AM1268.jpg 2.45
CF48.jpg 2.75
CM291.jpg 2.316667
AF137.jpg 2.716667
AF1475.jpg 1.683333
AM1694.jpg 3.166667
CF462.jpg 2.416667
AF1869.jpg 3.283333
AM806.jpg 2.4
AM1065.jpg 2.133333
AF288.jpg 2.5
AM529.jpg 3.266667
CM676.jpg 4.016667
AM1479.jpg 2.3
AF2.jpg 3.95
AF1468.jpg 4.383333
AF1542.jpg 2.316667
CM43.jpg 2.516667
AF1075.jpg 3.9
AF539.jpg 3.933333
AF1764.jpg 3.566667
CF19.jpg 3.933333
CF457.jpg 2.566667
AM59.jpg 4.2
AM560.jpg 2.866667
AF1535.jpg 3.233333
AM964.jpg 2.266667
AF1125.jpg 2.75
CM414.jpg 3
AM1878.jpg 3.95
AF1520.jpg 3.233333
AM843.jpg 2.466667
CF658.jpg 4.4
AF1779.jpg 3.683333
AM188.jpg 3.7
AM515.jpg 2.633333
AM1932.jpg 3
CF715.jpg 3.55
AM1874.jpg 2.366667
AM1899.jpg 2.666667
CF235.jpg 2.9
CF583.jpg 4.183333
AF231.jpg 2.666667
CF486.jpg 2.633333
AF1040.jpg 2.233333
AM1673.jpg 3.616667
AF1631.jpg 1.116667
AM1772.jpg 3.4
AF780.jpg 3.066667
AM575.jpg 2.9
AF619.jpg 2.966667
AF193.jpg 2.133333
AM1379.jpg 2.466667
CF296.jpg 3.166667
AF144.jpg 2.016667
AM388.jpg 2.666667
AM930.jpg 2.483333
AM5.jpg 2.3